<svg width="322px" height="167px" viewBox="0 0 322 167" version="1.1" xmlns="http://www.w3.org/2000/svg" xmlns:xlink="http://www.w3.org/1999/xlink">
    <!-- Generator: Sketch 46.2 (44496) - http://www.bohemiancoding.com/sketch -->
    <desc>Created with Sketch.</desc>
    <defs>
        <polygon id="path-1" points="0.32572562 9.02768239 7.21173554 9.02768239 7.21173554 0.216298742 0.32572562 0.216298742"></polygon>
        <path d="M31.1456496,0.42409434 C16.7929653,0.42409434 9.60784132,0.424625786 9.58974545,0.424625786 C5.78003306,0.457044025 2.75536198,3.70152516 2.75536198,7.55876415 L0.255471074,62.2292013 L37.7288198,62.2292013 L40.2297752,0.755185535 C40.321319,0.458106918 38.1194777,0.400179245 35.6600364,0.400179245 C34.0819702,0.400179245 32.3969256,0.42409434 31.1456496,0.42409434 Z" id="path-3"></path>
        <path d="M19.8777785,0.448540881 C8.74349752,0.764220126 -0.0207570248,9.83548113 0.302839669,20.7099403 L0.782380165,36.8552862 C1.10544463,47.7292138 10.3939471,56.2886918 21.5282281,55.973544 C32.6609124,55.6578648 41.4251669,46.5860723 41.1015702,35.7110818 L40.6220298,19.5667987 C40.3048198,8.88684906 31.3415107,0.439506289 20.4744099,0.439506289 C20.2758876,0.439506289 20.0773653,0.442694969 19.8777785,0.448540881 Z" id="path-5"></path>
        <path d="M9.82179835,0.0329496855 L1.81490909,0.259345912 C0.625371901,0.293358491 -0.171378512,1.48751887 0.293791736,2.55944654 C0.802604959,3.73181761 1.67386777,4.65866038 2.76494215,5.25919497 C3.7064595,5.77948113 4.81509752,6.05158176 5.99345785,6.01863208 C7.17075372,5.98568239 8.26129587,5.64980818 9.17034711,5.07744025 C10.2236331,4.41632075 11.0384793,3.44111635 11.477038,2.24323585 C11.8714215,1.16121069 11.0368826,0.0318867925 9.87342479,0.0318867925 C9.85639339,0.0318867925 9.83936198,0.032418239 9.82179835,0.0329496855 Z" id="path-7"></path>
        <path d="M0.460912397,0.195040881 C0.402899174,0.195040881 0.343821488,0.196103774 0.284743802,0.197698113 L0.137315702,0.201418239 L0.514667769,12.8806698 L0.661563636,12.8758868 C4.13756694,12.7775692 6.87004298,9.7871195 6.76891901,6.35822642 C6.6688595,2.98726101 3.85814545,0.195572327 0.46197686,0.195040881 C0.461444628,0.195040881 0.461444628,0.195040881 0.460912397,0.195040881 Z" id="path-9"></path>
        <path d="M6.11853223,0.198761006 C2.64306116,0.297610063 -0.0910115702,3.28805975 0.0111768595,6.71695283 C0.112833058,10.1458459 3.01934876,12.9763302 6.49481983,12.8780126 L6.64278017,12.873761 L6.26596033,0.195040881 L6.11853223,0.198761006 Z" id="path-11"></path>
        <path d="M3.6809124,0.0855628931 L3.66973554,0.0866257862 L3.63886612,0.0871572327 C2.00012562,0.132861635 0.61738843,1.21966981 0.111768595,2.69124528 C-0.113365289,3.34864465 0.406624793,4.02358176 1.11555702,4.00338679 C1.54666446,3.99169497 1.9234843,3.71906289 2.05867107,3.31888365 C2.29338512,2.62003145 2.91875702,2.06785849 3.69741157,2.04553774 L3.72828099,2.04500629 L3.73945785,2.04447484 C4.5181124,2.02215409 5.17541818,2.53872013 5.45111405,3.22269182 C5.60918678,3.61436792 6.00197355,3.86467925 6.43201653,3.85298742 L6.43308099,3.85298742 C7.14254545,3.83279245 7.62155372,3.12915723 7.35703471,2.48557547 C6.77849917,1.07724214 5.38511736,0.0845 3.79055207,0.0845 C3.75436033,0.0845 3.71763636,0.0850314465 3.6809124,0.0855628931 Z" id="path-13"></path>
        <path d="M4.01515372,0.0855628931 L4.00344463,0.0860943396 L3.97310744,0.0871572327 C2.33436694,0.132861635 0.952161983,1.21966981 0.446542149,2.69124528 C0.220343802,3.34811321 0.740333884,4.02358176 1.45033058,4.00338679 C1.88037355,3.99169497 2.25825785,3.71853145 2.3929124,3.31888365 C2.62762645,2.62003145 3.25299835,2.06785849 4.03112066,2.04553774 L4.06199008,2.04500629 L4.0742314,2.0439434 C4.85235372,2.02215409 5.5096595,2.53872013 5.78535537,3.22269182 C5.9434281,3.61436792 6.33621488,3.86467925 6.76679008,3.85298742 C7.47678678,3.83279245 7.95526281,3.12915723 7.69127603,2.48557547 C7.11220826,1.07671069 5.71722975,0.0845 4.12266446,0.0845 C4.08700496,0.0845 4.05081322,0.0850314465 4.01515372,0.0855628931 Z" id="path-15"></path>
        <path d="M27.4817686,0.309301887 C27.5642645,0.307176101 27.6456959,0.306113208 27.7276595,0.306113208 C32.2250149,0.306113208 35.9485058,3.81366038 36.0794347,8.23316981 C36.213557,12.7334591 32.5736264,16.5003522 27.9671636,16.6310881 C23.8216132,16.7480063 20.2934512,13.8792579 19.5281025,10.0262704 L16.7275008,10.1049245 C16.1926083,13.9956447 12.8406149,17.059434 8.69559669,17.1774151 C4.08860165,17.3081509 0.231520661,13.753305 0.0979305785,9.25407862 C-0.0356595041,4.75378931 3.60373884,0.986896226 8.21073388,0.855628931 C12.6101587,0.73127044 16.3171504,3.97043711 16.7594347,8.1805566 L19.3817388,8.10615409 C19.5733421,3.87796541 23.0818116,0.43472327 27.4817686,0.309301887 Z M21.2791438,8.65354403 C21.3797355,12.0622421 24.251124,14.7683679 27.7207405,14.7683679 C27.784076,14.7683679 27.8479438,14.767305 27.9112793,14.7657107 C31.4655207,14.6652673 34.2725091,11.7582547 34.1692562,8.28790881 C34.0665355,4.81596855 31.0918942,2.07423585 27.5371207,2.17467925 C23.9828793,2.27618553 21.1764231,5.18160377 21.2791438,8.65354403 Z M2.00704463,9.19933962 C2.1081686,12.6091006 4.98062149,15.3152264 8.45023802,15.3152264 C8.51304132,15.3152264 8.57690909,15.3141635 8.64024463,15.3120377 C12.194486,15.2110629 15.0014744,12.3045818 14.8982215,8.83423585 C14.7955008,5.36335849 11.819795,2.62056289 8.26661818,2.72100629 C4.71184463,2.82251258 1.90432397,5.72793082 2.00704463,9.19933962 Z" id="path-17"></path>
        <polygon id="path-19" points="0.502958678 0.400179245 2.75429752 6.38958176 8.50239669 1.98495283 14.1962083 6.28966981 16.5013025 0.400179245"></polygon>
        <path d="M0.221408264,13.5162799 L0.254938843,0.400179245 L0.221408264,13.5162799 Z" id="path-21"></path>
        <path d="M0.357659504,2.88150314 L16.8690744,21.159544 L24.4448562,14.7848428 L14.6895868,3.75732704 C12.6825421,1.53481761 9.88406942,0.400179245 7.07122645,0.400179245 C4.68470083,0.400179245 2.28806281,1.21754403 0.357659504,2.88150314 Z" id="path-23"></path>
        <path d="M0.852634711,10.5593113 L0.472089256,25.5243145 L10.5509554,25.5455723 L11.4482975,0.518691824 C11.3998645,0.518160377 11.3503669,0.517628931 11.3024661,0.517628931 C5.71510083,0.517097484 1.05115702,4.98337421 0.852634711,10.5593113 Z" id="path-25"></path>
        <path d="M7.11540165,4.65334591 C11.7963769,1.79150629 16.1335306,0.366166667 21.3227868,0.366698113 C22.5596926,0.366698113 23.8466281,0.447477987 25.1974314,0.609569182 C27.3779835,0.871572327 28.8873917,1.22923585 31.0046083,0.832245283 C32.0818446,0.630295597 34.1133719,0.361915094 33.3464264,2.08061321 C35.1267405,2.39257233 36.6058116,1.10222013 38.2440198,0.727018868 C38.8358612,0.592031447 39.9205488,0.344377358 40.4506512,0.712669811 C41.4342149,1.39823585 41.1542612,2.47707233 40.5464529,3.23757233 C40.6928165,2.36387421 37.1827504,1.32489623 38.2317785,3.36565094 C39.3175306,5.4765566 36.2822149,11.919283 40.0243339,10.7639182 C40.7710545,9.98056604 40.1392959,11.4840283 40.0243339,13.211761 C39.9466281,14.3766918 44.8234645,14.2916604 43.9495405,14.9697862 C44.1799967,17.3288774 44.1283702,17.2810472 44.2646215,19.9340283 C44.5483008,25.4265283 44.4210975,28.6152075 43.884076,34.4930063 C43.8079669,35.3316289 43.8446909,36.4678616 42.9830083,36.7234874 C41.9547372,37.0280063 41.6795736,36.2489057 41.6258182,35.932695 C41.4948893,35.1679434 41.5912231,34.1459717 41.6002711,33.3588994 C41.6141091,32.0185912 41.5374678,30.5672107 41.5215008,29.2269025 C41.4853091,26.3299874 40.6603504,18.3078019 40.0243339,18.8009843 C38.4867174,19.9930189 38.1237355,20.1269434 32.3995868,21.0468774 C22.1147471,22.6991447 16.6167967,19.8989528 10.7233983,19.3505 C9.09317355,19.1974434 7.23675041,19.0656447 5.71243967,19.9196792 C2.57120992,21.6792987 2.95175537,29.5526792 3.06671736,32.6690818 C3.12579504,34.2703302 3.95501157,38.1350094 2.45039339,38.1350094 C1.0490281,38.1350094 0.873923967,34.3431384 0.830813223,33.6751101 C0.346482645,26.155673 0.343289256,28.2224686 0.332112397,20.6743333 C0.327322314,18.3556321 0.51892562,15.990695 1.15547438,13.7490535 C1.33696529,13.107066 1.69568926,11.5584308 2.34235041,10.7649811 C2.34235041,10.7649811 0.508280992,11.1136101 0.720109091,9.29181132 C0.974515702,7.10012579 4.08381157,7.01668868 4.08381157,7.01668868 C4.08381157,7.01668868 3.42810248,4.68416981 4.39942479,3.43686478 C5.70019835,1.76865409 7.32243967,2.81826101 7.11540165,4.65334591 Z M40.1850678,3.61968239 C40.413395,3.50435849 40.5235669,3.37255975 40.5464529,3.23757233 C40.4352165,3.37681132 40.3122711,3.50542138 40.1850678,3.61968239 Z" id="path-27"></path>
        <path d="M0.0514135537,20.4147774 C0.113627345,9.21462066 9.2582599,0.121701258 20.4893124,0.121701258 C31.7593124,0.121701258 40.9280628,9.27693082 40.9280628,20.5297799 L40.9280628,125.033428 C40.9280628,126.372662 39.8564634,127.463103 38.5222673,127.494397 L38.4043086,127.494397 C37.069618,127.463103 35.9985355,126.372662 35.9985355,125.033428 L35.9985355,20.5297799 C35.9985355,11.9910283 29.0406744,5.04449057 20.4893124,5.04449057 C11.9384826,5.04449057 4.98115372,11.9910283 4.98115372,20.5297799 L4.98115372,24.529978 C4.98115372,25.8894182 3.87783802,26.9911069 2.51639008,26.9911069 C1.16780458,26.9911069 0.0728207852,25.9109812 0.0514135537,24.5700114 L0.0514135537,20.4147774 L0.0514135537,20.4147774 Z" id="path-29"></path>
        <path d="M4.98115372,0.32577673 L4.98115372,1.14633019 C4.98115372,1.43386338 4.93179595,1.70986583 4.84107755,1.9663522 L0.191175417,1.9663522 C0.100451983,1.70986583 0.0510942149,1.43386338 0.0510942149,1.14633019 L0.0510942149,0.32577673 L4.98115372,0.32577673 L4.98115372,0.32577673 Z" id="path-31"></path>
        <path d="M0.0549177954,0.46852327 C0.0523726207,0.600801248 0.0510942149,0.733383319 0.0510942149,0.866257862 L0.0510942149,2.10909874 L4.98115372,2.10909874 L4.98115372,0.866257862 C4.98115372,0.7332868 4.98284092,0.600701863 4.98619508,0.46852327 L0.0549177954,0.46852327 L0.0549177954,0.46852327 Z" id="path-33"></path>
        <path d="M0.107031242,3.60012516 C0.19459789,2.41636486 0.383744942,1.26036144 0.665778081,0.140796417 L5.80271091,0.140796417 C5.42683238,1.24369446 5.17228883,2.40211601 5.05504443,3.60012516 L0.107031242,3.60012516 L0.107031242,3.60012516 Z" id="path-35"></path>
        <path d="M0.44229903,5.91563774 C0.823555806,4.00017351 1.47416006,2.18038626 2.3528851,0.497441861 L8.17554538,0.497444189 C6.95333719,2.08940165 6.03326057,3.92420985 5.50169965,5.91563774 L0.44229903,5.91563774 L0.44229903,5.91563774 Z" id="path-37"></path>
        <path d="M0.462019816,2.15651616 C2.20412606,1.18740787 4.10208212,0.465321663 6.10804885,0.0380261446 L6.10804885,5.10955466 C4.01139595,5.70983025 2.09517054,6.7407962 0.462019816,8.09998719 L0.462019816,2.15651616 L0.462019816,2.15651616 Z" id="path-39"></path>
        <path d="M0.0595861379,0.879851765 C1.25450048,0.544277983 2.49340624,0.31471702 3.76543219,0.202024064 L3.76543219,5.15066608 C2.47552574,5.30202942 1.23351651,5.61210456 0.0595861379,6.0607456 L0.0595861379,0.879851765 L0.0595861379,0.879851765 Z" id="path-41"></path>
        <path d="M0.507855207,0.137952938 C0.780244757,0.127152666 1.05398786,0.121701258 1.32898182,0.121701258 C1.60422672,0.121701258 1.87821828,0.127162104 2.15085355,0.137980986 L2.15085355,5.06596867 C1.87867216,5.05170973 1.60465501,5.04449057 1.32898182,5.04449057 C1.05355997,5.04449057 0.779791354,5.05169747 0.507855207,5.06593235 L0.507855207,0.137952938 L0.507855207,0.137952938 Z" id="path-43"></path>
        <polygon id="path-45" points="5.26855868 0.32577673 5.26855868 1.9663522 0.339031405 1.9663522 0.339031405 0.32577673 5.26855868 0.32577673"></polygon>
        <path d="M5.2647351,0.46852327 C5.26728027,0.600801248 5.26855868,0.733383319 5.26855868,0.866257862 L5.26855868,2.10909874 L0.339031405,2.10909874 L0.339031405,0.866257862 C0.339031405,0.7332868 0.33734407,0.600701863 0.333989659,0.46852327 L5.2647351,0.46852327 L5.2647351,0.46852327 Z" id="path-47"></path>
        <path d="M5.18614297,0.140949818 C5.46815607,1.26046704 5.65729024,2.41641892 5.74485301,3.60012516 L0.797366468,3.60012516 C0.680118603,2.40217156 0.425573959,1.24380188 0.0496960908,0.140949818 L5.18614297,0.140949818 L5.18614297,0.140949818 Z" id="path-49"></path>
        <path d="M6.16002651,0.497221286 C7.03881857,2.18022725 7.68946651,4.00008983 8.07074135,5.91563774 L3.01183459,5.91563774 C2.48020926,3.92411787 1.56000387,2.08923216 0.337623084,0.497223615 L6.16002773,0.497223615 L6.16002651,0.497221286 Z" id="path-51"></path>
        <path d="M0.208100899,0.0237440578 C2.2130641,0.443680438 4.11091146,1.15791558 5.85405703,2.11893014 L5.85405331,8.04358395 C4.21807866,6.69774317 2.30219524,5.67949221 0.208100899,5.09033864 L0.208100899,0.0237440578 L0.208100899,0.0237440578 Z" id="path-53"></path>
        <path d="M0.421845167,0.196159839 C1.69358732,0.304590957 2.93247252,0.529805134 4.12766888,0.860985654 L4.12766888,6.03503395 C2.95315451,5.59251876 1.71118807,5.28846018 0.421845167,5.14289624 L0.421845167,0.196159839 L0.421845167,0.196159839 Z" id="path-55"></path>
        <path d="M0.439197355,0.140789679 C0.734234983,0.128107611 1.03087341,0.121701258 1.32898182,0.121701258 C1.58131189,0.121701258 1.83258862,0.126290695 2.08273269,0.135390357 L2.08272793,5.06254868 C1.8329686,5.05055612 1.58167092,5.04449057 1.32898182,5.04449057 C1.03036747,5.04449057 0.733696502,5.05296232 0.439197355,5.06967778 L0.439197355,0.140789679 L0.439197355,0.140789679 Z" id="path-57"></path>
        <polygon id="path-59" points="5.26855868 0.133499371 5.26855868 1.77407484 0.339031405 1.77407484 0.339031405 0.133499371 5.26855868 0.133499371"></polygon>
        <polygon id="path-61" points="5.26855868 0.477611006 5.26855868 2.11818648 0.339031405 2.11818648 0.339031405 0.477611006 5.26855868 0.477611006"></polygon>
        <polygon id="path-63" points="5.26855868 0.289691509 5.26855868 1.93079843 0.339031405 1.93079843 0.339031405 0.289691509 5.26855868 0.289691509"></polygon>
        <polygon id="path-65" points="5.26855868 0.10288805 5.26855868 1.74346352 0.339031405 1.74346352 0.339031405 0.10288805 5.26855868 0.10288805"></polygon>
        <polygon id="path-67" points="5.26855868 0.447212264 5.26855868 2.08778774 0.339031405 2.08778774 0.339031405 0.447212264 5.26855868 0.447212264"></polygon>
        <polygon id="path-69" points="5.26855868 0.259080189 5.26855868 1.90018711 0.339031405 1.90018711 0.339031405 0.259080189 5.26855868 0.259080189"></polygon>
        <polygon id="path-71" points="5.26855868 0.0720110063 5.26855868 1.71311792 0.339031405 1.71311792 0.339031405 0.0720110063 5.26855868 0.0720110063"></polygon>
        <polygon id="path-73" points="5.26855868 0.415803774 5.26855868 2.05691069 0.339031405 2.05691069 0.339031405 0.415803774 5.26855868 0.415803774"></polygon>
        <polygon id="path-75" points="5.26855868 0.229000314 5.26855868 1.86957579 0.339031405 1.86957579 0.339031405 0.229000314 5.26855868 0.229000314"></polygon>
        <polygon id="path-77" points="5.26855868 0.0413996855 5.26855868 1.68197516 0.339031405 1.68197516 0.339031405 0.0413996855 5.26855868 0.0413996855"></polygon>
        <polygon id="path-79" points="5.26855868 0.385723899 5.26855868 2.02629937 0.339031405 2.02629937 0.339031405 0.385723899 5.26855868 0.385723899"></polygon>
        <polygon id="path-81" points="5.26855868 0.19812327 5.26855868 1.83869874 0.339031405 1.83869874 0.339031405 0.19812327 5.26855868 0.19812327"></polygon>
        <polygon id="path-83" points="5.26855868 0.0104694969 5.26855868 1.65157642 0.339031405 1.65157642 0.339031405 0.0104694969 5.26855868 0.0104694969"></polygon>
        <polygon id="path-85" points="5.26855868 0.354846855 5.26855868 1.99542233 0.339031405 1.99542233 0.339031405 0.354846855 5.26855868 0.354846855"></polygon>
        <polygon id="path-87" points="5.26855868 0.16751195 5.26855868 1.80808742 0.339031405 1.80808742 0.339031405 0.16751195 5.26855868 0.16751195"></polygon>
        <polygon id="path-89" points="5.26855868 0.511304717 5.26855868 2.15188019 0.339031405 2.15188019 0.339031405 0.511304717 5.26855868 0.511304717"></polygon>
        <polygon id="path-91" points="5.26855868 0.323704088 5.26855868 1.96481101 0.339031405 1.96481101 0.339031405 0.323704088 5.26855868 0.323704088"></polygon>
        <polygon id="path-93" points="5.26855868 0.136581761 5.26855868 1.77768868 0.339031405 1.77768868 0.339031405 0.136581761 5.26855868 0.136581761"></polygon>
        <polygon id="path-95" points="5.26855868 0.480427673 5.26855868 2.12153459 0.339031405 2.12153459 0.339031405 0.480427673 5.26855868 0.480427673"></polygon>
        <polygon id="path-97" points="5.26855868 0.293624214 5.26855868 1.93419969 0.339031405 1.93419969 0.339031405 0.293624214 5.26855868 0.293624214"></polygon>
        <polygon id="path-99" points="5.26855868 0.106023585 5.26855868 1.74659906 0.339031405 1.74659906 0.339031405 0.106023585 5.26855868 0.106023585"></polygon>
        <polygon id="path-101" points="5.26855868 0.450347799 5.26855868 2.09092327 0.339031405 2.09092327 0.339031405 0.450347799 5.26855868 0.450347799"></polygon>
        <polygon id="path-103" points="5.26855868 0.26274717 5.26855868 1.90332264 0.339031405 1.90332264 0.339031405 0.26274717 5.26855868 0.26274717"></polygon>
        <polygon id="path-105" points="5.26855868 0.0750933962 5.26855868 1.71620031 0.339031405 1.71620031 0.339031405 0.0750933962 5.26855868 0.0750933962"></polygon>
        <polygon id="path-107" points="5.26855868 0.418939308 5.26855868 2.06004623 0.339031405 2.06004623 0.339031405 0.418939308 5.26855868 0.418939308"></polygon>
        <polygon id="path-109" points="5.26855868 0.232135849 5.26855868 1.87271132 0.339031405 1.87271132 0.339031405 0.232135849 5.26855868 0.232135849"></polygon>
        <polygon id="path-111" points="5.26855868 0.0444820755 5.26855868 1.68505755 0.339031405 1.68505755 0.339031405 0.0444820755 5.26855868 0.0444820755"></polygon>
        <polygon id="path-113" points="5.26855868 0.388859434 5.26855868 2.02943491 0.339031405 2.02943491 0.339031405 0.388859434 5.26855868 0.388859434"></polygon>
    </defs>
    <g id="Page-1" stroke="none" stroke-width="1" fill="none" fill-rule="evenodd">
        <g id="ABOUT" transform="translate(-721.000000, -1322.000000)">
            <g id="section-2" transform="translate(232.000000, 1225.000000)">
                <g id="building" transform="translate(489.000000, 95.000000)">
                    <g id="Page-1" transform="translate(0.000000, 2.657233)">
                        <g id="Group-5" transform="translate(81.963636, 1.185657)" fill="#676B87">
                            <path d="M88.6410116,16.7726654 C88.6410116,25.9268321 81.2089322,33.3474201 72.0417785,33.3474201 C62.8740926,33.3474201 55.4425455,25.9268321 55.4425455,16.7726654 C55.4425455,7.61849874 62.8740926,0.197910692 72.0417785,0.197910692 C81.2089322,0.197910692 88.6410116,7.61849874 88.6410116,16.7726654" id="Fill-1"></path>
                            <path d="M33.2889455,32.7160616 C33.2889455,41.8702283 25.8568661,49.2908164 16.6897124,49.2908164 C7.52202645,49.2908164 0.0904793388,41.8702283 0.0904793388,32.7160616 C0.0904793388,23.561895 7.52202645,16.1413069 16.6897124,16.1413069 C25.8568661,16.1413069 33.2889455,23.561895 33.2889455,32.7160616" id="Fill-3"></path>
                        </g>
                        <g id="Group-8" transform="translate(155.411570, 64.427796)">
                            <mask id="mask-2" fill="white">
                                <use xlink:href="#path-1"></use>
                            </mask>
                            <g id="Clip-7"></g>
                            <polygon id="Fill-6" fill="#FFD8CA" mask="url(#mask-2)" points="-4.97317025 14.3182327 12.5111636 14.3182327 12.5111636 -5.07478302 -4.97317025 -5.07478302"></polygon>
                        </g>
                        <g id="Group-11" transform="translate(139.444628, 70.273708)">
                            <mask id="mask-4" fill="white">
                                <use xlink:href="#path-3"></use>
                            </mask>
                            <g id="Clip-10"></g>
                            <polygon id="Fill-9" fill="#FFFFFF" mask="url(#mask-4)" points="-5.04369091 67.5203362 43.030643 67.5203362 45.5305339 -4.89031792 -2.54326777 -4.89031792"></polygon>
                        </g>
                        <g id="Group-14" transform="translate(139.444628, 11.283142)">
                            <mask id="mask-6" fill="white">
                                <use xlink:href="#path-5"></use>
                            </mask>
                            <g id="Clip-13"></g>
                            <polygon id="Fill-12" fill="#FFD8CA" mask="url(#mask-6)" points="-5.0045719 61.2725975 46.409514 61.2725975 46.409514 -4.85051258 -5.0045719 -4.85051258"></polygon>
                        </g>
                        <g id="Group-17" transform="translate(154.347107, 53.798865)">
                            <mask id="mask-8" fill="white">
                                <use xlink:href="#path-7"></use>
                            </mask>
                            <g id="Clip-16"></g>
                            <polygon id="Fill-15" fill="#FFFFFF" mask="url(#mask-8)" points="-5.13869421 11.3123711 16.8743967 11.3123711 16.8743967 -5.25866352 -5.13869421 -5.25866352"></polygon>
                        </g>
                        <g id="Group-20" transform="translate(178.829752, 36.792575)">
                            <mask id="mask-10" fill="white">
                                <use xlink:href="#path-9"></use>
                            </mask>
                            <g id="Clip-19"></g>
                            <polygon id="Fill-18" fill="#FFD8CA" mask="url(#mask-10)" points="-5.16104793 18.1712201 12.0699438 18.1712201 12.0699438 -5.09550943 -5.16104793 -5.09550943"></polygon>
                        </g>
                        <g id="Group-23" transform="translate(134.654545, 36.792575)">
                            <mask id="mask-12" fill="white">
                                <use xlink:href="#path-11"></use>
                            </mask>
                            <g id="Clip-22"></g>
                            <polygon id="Fill-21" fill="#FFD8CA" mask="url(#mask-12)" points="-5.29038017 18.1712201 11.941676 18.1712201 11.941676 -5.09550943 -5.29038017 -5.09550943"></polygon>
                        </g>
                        <g id="Group-26" transform="translate(165.523967, 40.512701)">
                            <mask id="mask-14" fill="white">
                                <use xlink:href="#path-13"></use>
                            </mask>
                            <g id="Clip-25"></g>
                            <polygon id="Fill-24" fill="#323761" mask="url(#mask-14)" points="-5.23981818 9.295 12.7293785 9.295 12.7293785 -5.20658176 -5.23981818 -5.20658176"></polygon>
                        </g>
                        <g id="Group-29" transform="translate(147.960331, 40.512701)">
                            <mask id="mask-16" fill="white">
                                <use xlink:href="#path-15"></use>
                            </mask>
                            <g id="Clip-28"></g>
                            <polygon id="Fill-27" fill="#323761" mask="url(#mask-16)" points="-4.90557686 9.295 13.0636198 9.295 13.0636198 -5.20658176 -4.90557686 -5.20658176"></polygon>
                        </g>
                        <g id="Group-32" transform="translate(142.105785, 33.072450)">
                            <mask id="mask-18" fill="white">
                                <use xlink:href="#path-17"></use>
                            </mask>
                            <g id="Clip-31"></g>
                            <polygon id="Fill-30" fill="#323761" mask="url(#mask-18)" points="-5.20415868 22.472217 41.381524 22.472217 41.381524 -4.98443711 -5.20415868 -4.98443711"></polygon>
                        </g>
                        <g id="Group-35" transform="translate(151.685950, 70.273708)">
                            <mask id="mask-20" fill="white">
                                <use xlink:href="#path-19"></use>
                            </mask>
                            <g id="Clip-34"></g>
                            <polygon id="Fill-33" fill="#00C9C9" mask="url(#mask-20)" points="-4.79540496 11.6806635 21.7996661 11.6806635 21.7996661 -4.89037107 -4.79540496 -4.89037107"></polygon>
                        </g>
                        <g id="Group-38" transform="translate(205.973554, 70.273708)">
                            <mask id="mask-22" fill="white">
                                <use xlink:href="#path-21"></use>
                            </mask>
                            <g id="Clip-37"></g>
                            <polygon id="Fill-36" fill="#00C9C9" mask="url(#mask-22)" points="-5.07695537 18.8073616 5.55383471 18.8073616 5.55383471 -4.89037107 -5.07695537 -4.89037107"></polygon>
                        </g>
                        <g id="Group-41" transform="translate(171.378512, 70.273708)">
                            <mask id="mask-24" fill="white">
                                <use xlink:href="#path-23"></use>
                            </mask>
                            <g id="Clip-40"></g>
                            <polygon id="Fill-39" fill="#FFFFFF" mask="url(#mask-24)" points="-4.94070413 26.4506258 29.7432198 26.4506258 29.7432198 -4.89037107 -4.94070413 -4.89037107"></polygon>
                        </g>
                        <polygon id="Fill-42" fill="#009B97" points="178.744595 96.185978 197.579732 96.185978 197.579732 78.6168868 178.744595 78.6168868"></polygon>
                        <g id="Group-46" transform="translate(136.251240, 70.805154)">
                            <mask id="mask-26" fill="white">
                                <use xlink:href="#path-25"></use>
                            </mask>
                            <g id="Clip-45"></g>
                            <polygon id="Fill-44" fill="#FFFFFF" mask="url(#mask-26)" points="10.3167203 -8.83588333 -16.2528036 13.4258808 3.92249223 37.4345097 30.4920162 15.1727456"></polygon>
                        </g>
                        <path d="M183.404175,13.8419503 C183.404175,21.3518214 177.307464,27.4395415 169.786502,27.4395415 C162.26554,27.4395415 156.168829,21.3518214 156.168829,13.8419503 C156.168829,6.33207925 162.26554,0.244359119 169.786502,0.244359119 C177.307464,0.244359119 183.404175,6.33207925 183.404175,13.8419503" id="Fill-47" fill="#E5B642"></path>
                        <g id="Group-51" transform="translate(137.847934, 5.968676)">
                            <mask id="mask-28" fill="white">
                                <use xlink:href="#path-27"></use>
                            </mask>
                            <g id="Clip-50"></g>
                            <polygon id="Fill-49" fill="#E5B642" mask="url(#mask-28)" points="-4.96678347 43.4260912 49.709881 43.4260912 49.709881 -4.92438365 -4.96678347 -4.92438365"></polygon>
                        </g>
                        <g id="Group-107" transform="translate(40.981818, 21.912072)">
                            <path d="M116.529618,51.5343711 L131.807853,51.5343711 L131.807853,52.3023113 C131.807853,52.9427044 131.287862,53.4619277 130.645991,53.4619277 L117.690947,53.4619277 C117.049608,53.4619277 116.529618,52.9427044 116.529618,52.3023113 L116.529618,51.5343711 Z" id="Fill-52" fill="#ED0C6E"></path>
                            <path d="M139.900484,42.8641396 C139.900484,43.7192371 139.205922,44.4127748 138.349562,44.4127748 L135.804431,44.4127748 L135.804431,37.3796113 L138.349562,37.3796113 C139.205922,37.3796113 139.900484,38.0731491 139.900484,38.9282465 L139.900484,42.8641396 Z M142.161403,43.2457182 L142.161403,38.5461365 C142.161403,36.5569321 140.546613,34.9445233 138.555003,34.9445233 L133.543512,34.9445233 L133.543512,46.8478629 L138.555003,46.8478629 C140.546613,46.8478629 142.161403,45.2349226 142.161403,43.2457182 L142.161403,43.2457182 Z" id="Fill-54" fill="#ED0C6E"></path>
                            <path d="M118.937113,52.1211412 L129.399718,52.1211412 C133.464902,52.1211412 136.760479,48.8304242 136.760479,44.7707041 L136.760479,32.5484965 C136.760479,32.062223 136.366095,31.6684211 135.879103,31.6684211 L112.457728,31.6684211 C111.971269,31.6684211 111.576353,32.062223 111.576353,32.5484965 L111.576353,44.7707041 C111.576353,48.8304242 114.87193,52.1211412 118.937113,52.1211412" id="Fill-56" fill="#ED0C6E"></path>
                            <path d="M133.150939,45.2151528 L133.150939,32.4949799 C133.150939,32.0384673 132.779973,31.6680491 132.322254,31.6680491 L135.93238,31.6680491 C136.390099,31.6680491 136.760532,32.0384673 136.760532,32.4949799 L136.760532,45.2151528 C136.760532,49.0293447 133.66401,52.1213006 129.844717,52.1213006 L126.235124,52.1213006 C130.054948,52.1213006 133.150939,49.0293447 133.150939,45.2151528" id="Fill-58" fill="#F43B93"></path>
                            <path d="M140.880269,44.0066965 L151.962391,36.6179953 L175.584418,71.9448412 C169.463757,76.0252877 161.189155,74.3788664 157.10215,68.2672311 L140.880269,44.0066965 Z" id="Fill-60" fill="#FFD8CA"></path>
                            <path d="M136.610975,37.622323 L145.741937,51.2778418 L152.402281,46.837606 C156.178995,44.3196123 157.196089,39.221977 154.674377,35.4508324 C152.153196,31.6802192 147.0475,30.6640934 143.271319,33.1820871 L136.610975,37.622323 Z" id="Fill-62" fill="#FFD8CA"></path>
                            <rect id="Rectangle-2" fill="#FFD8CA" x="145.299174" y="38.2641509" width="45.2396694" height="20.7264151" rx="10.3632075"></rect>
                            <path d="M91.1904,129.866721 L91.1904,115.704203 L45.9129421,115.704203 C45.9129421,123.526033 52.262995,129.866721 60.0963769,129.866721 L91.1904,129.866721 Z" id="Fill-64" fill="#FFD8CA"></path>
                            <path d="M99.3734579,129.866721 L81.8710281,129.866721 L81.8710281,121.355605 C81.8710281,116.529539 85.7898479,112.617561 90.6225091,112.617561 C95.4551702,112.617561 99.3734579,116.529539 99.3734579,121.355605 L99.3734579,129.866721 Z" id="Fill-66" fill="#FFD8CA"></path>
                            <polygon id="Fill-68" fill="#4D4D4D" points="244.553412 142.959119 253.317666 142.959119 253.317666 134.332148 244.553412 134.332148"></polygon>
                            <polygon id="Fill-70" fill="#4D4D4D" points="214.152354 142.959119 222.916608 142.959119 222.916608 134.332148 214.152354 134.332148"></polygon>
                            <path d="M67.1251312,61.760306 L64.7221064,61.760306 C53.6096469,61.760306 44.6016304,52.7650418 44.6016304,41.6695009 L44.6016304,28.6246142 C44.6016304,19.2844412 52.1843312,11.7129223 61.537766,11.7129223 L87.2461395,11.7129223 L87.2461395,41.6695009 C87.2461395,52.7650418 78.2375907,61.760306 67.1251312,61.760306" id="Fill-71" fill="#FFD8CA"></path>
                            <path d="M84.2459511,128.602729 L71.4282221,128.602729 L71.4282221,61.2445371 L72.7678486,61.2445371 C79.1072569,61.2445371 84.2459511,66.3761849 84.2459511,72.7062447 L84.2459511,128.602729 Z" id="Fill-72" fill="#FFD8CA"></path>
                            <path d="M84.2459511,89.5499645 L71.4282221,89.5499645 L71.4282221,61.2445903 L72.7678486,61.2445903 C79.1072569,61.2445903 84.2459511,66.3762381 84.2459511,72.7062978 L84.2459511,89.5499645 Z" id="Fill-73" fill="#00CBCB"></path>
                            <path d="M76.4491336,61.5798267 C76.213355,61.5197733 75.9770443,61.4645028 75.7354112,61.4203928 C75.9759798,61.4650343 76.2138873,61.5187104 76.4491336,61.5798267 Z" id="Fill-74" fill="#F05E5E"></path>
                            <path d="M76.570163,61.6108632 C76.8362787,61.6836714 77.0986688,61.7644513 77.356801,61.8563915 C77.0986688,61.7644513 76.8368109,61.6826085 76.570163,61.6108632" id="Fill-75" fill="#F05E5E"></path>
                            <path d="M74.8383352,61.2934833 C75.0224873,61.3110211 75.203446,61.3397192 75.3838724,61.366823 C75.2029137,61.3402506 75.0230195,61.3104896 74.8383352,61.2934833" id="Fill-76" fill="#F05E5E"></path>
                            <polygon id="Fill-77" fill="#DDBDB3" points="71.4282221 104.318864 76.9267048 89.5499645 71.4282221 89.5499645"></polygon>
                            <path d="M73.8726013,61.2446965 C74.1988592,61.2446965 74.5203269,61.2643601 74.8380691,61.2935896 C74.5208592,61.2627657 74.1988592,61.2446965 73.8726013,61.2446965" id="Fill-78" fill="#3F5B87"></path>
                            <path d="M77.3570671,61.8563384 L77.3565349,61.8563384 L77.3570671,61.8563384 Z" id="Fill-79" fill="#3F5B87"></path>
                            <path d="M76.4490803,61.5799862 C76.4895299,61.5900836 76.5299795,61.6001811 76.5704291,61.6108101 C76.5299795,61.6001811 76.4895299,61.5906151 76.4490803,61.5799862" id="Fill-80" fill="#3F5B87"></path>
                            <path d="M75.3840853,61.3669292 C75.5017084,61.3839355 75.6193316,61.3993475 75.735358,61.4206053 C75.6193316,61.398816 75.5017084,61.384467 75.3840853,61.3669292" id="Fill-81" fill="#3F5B87"></path>
                            <path d="M39.9182069,138.645687 L16.8236218,135.780658 C6.27958545,135.780658 -2.42931702,147.129699 1.24414413,137.261269 L27.1771193,67.6003189 C29.3800251,61.6831931 35.0349838,57.7579289 41.3568284,57.7579289 L63.5130896,57.7579289 C74.0565937,57.7579289 81.3662598,68.2582497 77.6927987,78.1266805 L53.3245838,135.780658 C51.1222102,141.697784 46.2400516,138.645687 39.9182069,138.645687" id="Fill-82" fill="#323761"></path>
                            <path d="M59.8019997,74.4403016 C53.1576228,74.4403016 47.7512162,69.0418676 47.7512162,62.4067575 L47.7512162,54.2022858 L71.8527831,54.2022858 L71.8527831,62.4067575 C71.8527831,69.0418676 66.4463765,74.4403016 59.8019997,74.4403016" id="Fill-83" fill="#00CBCB"></path>
                            <path d="M59.8019997,71.9787475 L59.8019997,71.9787475 C54.5078939,71.9787475 50.2159798,67.693694 50.2159798,62.4068638 L50.2159798,56.6640525 L69.3880195,56.6640525 L69.3880195,62.4068638 C69.3880195,67.693694 65.0961055,71.9787475 59.8019997,71.9787475" id="Fill-84" fill="#FFD8CA"></path>
                            <path d="M69.3881792,62.4069701 L69.3881792,56.6636274 L50.2161395,56.6636274 L50.2161395,62.4069701 C50.2161395,62.7933318 50.2459445,63.1717217 50.2901197,63.5463915 C53.2913726,66.2169104 57.2458519,67.8426053 61.5819412,67.8426053 L64.5949031,67.8426053 C65.7248304,67.8426053 66.8281461,67.7299387 67.8963345,67.5200173 C68.8362552,66.0394072 69.3881792,64.2893538 69.3881792,62.4069701" id="Fill-85" fill="#DDBDB3"></path>
                            <path d="M48.932078,27.4109497 C48.932078,21.5374025 53.7003392,16.776173 59.5825607,16.776173 L79.0111359,16.776173 C81.9847127,16.776173 84.6708846,17.9958428 86.6028846,19.9584748 C85.6517871,12.316805 79.1383392,6.39808491 71.2277838,6.39808491 L60.1089375,6.39808491 C51.5442698,6.39808491 44.6013111,13.3313365 44.6013111,21.8833742 L44.6013111,36.0357956 L48.932078,36.0357956 L48.932078,27.4109497 Z" id="Fill-86" fill="#4E5375"></path>
                            <path d="M44.6014707,40.1184211 L43.6870972,40.1184211 C41.4692889,40.1184211 39.6714112,38.3231947 39.6714112,36.1091884 L39.6714112,34.2831381 C39.6714112,32.0686003 41.4692889,30.2733739 43.6870972,30.2733739 L44.6014707,30.2733739 L44.6014707,40.1184211 Z" id="Fill-87" fill="#FFD8CA"></path>
                            <path d="M59.7980079,32.0878387 C58.6632906,32.0878387 57.7435947,31.1694991 57.7435947,30.0369865 C57.7435947,28.9039425 58.6632906,27.9856028 59.7980079,27.9856028 L63.0845369,27.9856028 C64.218722,27.9856028 65.1384179,28.9039425 65.1384179,30.0369865 C65.1384179,31.1694991 64.218722,32.0878387 63.0845369,32.0878387 L59.7980079,32.0878387 Z" id="Fill-88" fill="#323761"></path>
                            <path d="M80.096196,32.0878387 L76.8096671,32.0878387 C75.6749498,32.0878387 74.7557861,31.1694991 74.7557861,30.0369865 C74.7557861,28.9039425 75.6749498,27.9856028 76.8096671,27.9856028 L80.096196,27.9856028 C81.2309134,27.9856028 82.150077,28.9039425 82.150077,30.0369865 C82.150077,31.1694991 81.2309134,32.0878387 80.096196,32.0878387" id="Fill-89" fill="#323761"></path>
                            <rect id="Rectangle" fill="#FFFFFF" x="105.381818" y="70.1509434" width="34.5950413" height="63.2421384"></rect>
                            <path d="M63.4252182,35.6644208 C63.4252182,36.6614145 62.6156942,37.4697447 61.6172281,37.4697447 C60.6182298,37.4697447 59.8087058,36.6614145 59.8087058,35.6644208 C59.8087058,34.667427 60.6182298,33.8585654 61.6172281,33.8585654 C62.6156942,33.8585654 63.4252182,34.667427 63.4252182,35.6644208" id="Fill-90" fill="#323761"></path>
                            <path d="M44.7163263,21.9150484 L83.4920453,21.9150484 C88.9064354,21.9150484 93.2952155,17.5322088 93.2952155,12.1263346 L93.2952155,10.0648535 C93.2952155,3.37766164 88.9064354,0.276139623 83.4920453,0.276139623 L64.3226668,0.276139623 C53.4944188,0.276139623 44.7163263,9.04128742 44.7163263,19.8535673 L44.7163263,21.9150484 Z" id="Fill-91" fill="#323761"></path>
                            <path d="M24.5782334,74.580816 L24.5782334,115.926825 C24.5782334,122.995596 30.3167524,128.725653 37.3959623,128.725653 L37.3959623,58.2951682 C32.7628879,59.5515079 28.9052747,62.9575487 27.1771193,67.6002657 L24.5782334,74.580816 Z" id="Fill-92" fill="#2A2F4F"></path>
                            <path d="M39.9182069,128.725706 L39.9182069,128.725706 L39.9182069,57.7579289 L37.4736681,57.7579289 C31.7447293,57.7579289 27.100478,62.3953314 27.100478,68.115822 L27.100478,115.926879 C27.100478,122.995649 32.838997,128.725706 39.9182069,128.725706" id="Fill-93" fill="#FFD8CA"></path>
                            <path d="M68.0185881,128.725706 L68.0185881,115.926879 L27.1006377,115.926879 C27.1006377,122.995649 32.8391567,128.725706 39.9183666,128.725706 L68.0185881,128.725706 Z" id="Fill-94" fill="#FFD8CA"></path>
                            <path d="M27.1004248,86.0630906 L39.9181537,86.0630906 L39.9181537,57.7577164 L38.5785273,57.7577164 C32.2396512,57.7577164 27.1004248,62.8893642 27.1004248,69.2194239 L27.1004248,86.0630906 Z" id="Fill-95" fill="#00CBCB"></path>
                            <path d="M75.4131983,128.725706 L59.5968777,128.725706 L59.5968777,121.03408 C59.5968777,116.67303 63.137281,113.137316 67.5053041,113.137316 C71.872795,113.137316 75.4131983,116.67303 75.4131983,121.03408 L75.4131983,128.725706 Z" id="Fill-96" fill="#FFD8CA"></path>
                            <path d="M208.910726,104.386092 L126.960928,104.386092 C122.023417,104.386092 118.021037,100.389082 118.021037,95.4588528 L118.021037,50.9597711 C118.021037,46.0295415 122.023417,42.0325321 126.960928,42.0325321 L208.910726,42.0325321 C213.848237,42.0325321 217.851149,46.0295415 217.851149,50.9597711 L217.851149,95.4588528 C217.851149,100.389082 213.848237,104.386092 208.910726,104.386092" id="Fill-97" fill="#FFFFFF"></path>
                            <path d="M122.950724,96.3183613 L122.950724,50.1005814 C122.950724,45.6449336 126.567768,42.0326915 131.030529,42.0326915 L126.100469,42.0326915 C121.637709,42.0326915 118.020664,45.6449336 118.020664,50.1005814 L118.020664,96.3183613 C118.020664,100.774009 121.637709,104.386251 126.100469,104.386251 L131.030529,104.386251 C126.567768,104.386251 122.950724,100.774009 122.950724,96.3183613" id="Fill-98" fill="#EAEFEF"></path>
                            <path d="M181.219099,73.2095245 C181.219099,76.9099868 178.214652,79.9094711 174.509257,79.9094711 C170.80333,79.9094711 167.798884,76.9099868 167.798884,73.2095245 C167.798884,69.5090623 170.80333,66.5090465 174.509257,66.5090465 C178.214652,66.5090465 181.219099,69.5090623 181.219099,73.2095245" id="Fill-99" fill="#EAEFEF"></path>
                            <path d="M192.379885,128.725706 L151.845141,128.725706 C150.786533,128.725706 149.928043,127.868482 149.928043,126.811435 C149.928043,125.754388 150.786533,124.897165 151.845141,124.897165 L192.379885,124.897165 L192.379885,128.725706 Z" id="Fill-100" fill="#EAEFEF"></path>
                            <polygon id="Fill-101" fill="#D2DEDE" points="160.883441 104.386198 181.972046 104.386198 181.972046 87.7040912 160.883441 87.7040912"></polygon>
                            <path d="M180.6032,87.7038786 L160.883495,87.7038786 L160.883495,88.1773975 C165.78641,89.5984855 169.37365,94.1088723 169.37365,99.4631962 L169.37365,128.725706 L192.379885,128.725706 L192.379885,99.4631962 C192.379885,92.9689195 187.1076,87.7038786 180.6032,87.7038786" id="Fill-102" fill="#FFFFFF"></path>
                            <path d="M167.255316,87.7038786 L160.883441,87.7038786 L160.883441,88.1773975 C165.786357,89.5984855 169.373597,94.1088723 169.373597,99.4631962 L169.373597,128.725706 L173.153504,128.725706 L173.153504,98.2929509 C173.153504,93.7634321 170.779752,89.8153157 167.255316,87.7038786" id="Fill-103" fill="#EAEFEF"></path>
                            <path d="M253.044898,128.725706 L223.342127,128.725706 L223.342127,127.874328 C223.342127,123.563234 226.842613,120.068442 231.160074,120.068442 L245.227483,120.068442 C249.545476,120.068442 253.044898,123.563234 253.044898,127.874328 L253.044898,128.725706 Z" id="Fill-104" fill="#F2E6DC"></path>
                            <path d="M253.044898,128.725706 L223.342127,128.725706 L223.342127,127.874328 C223.342127,123.563234 226.842613,120.068442 231.160074,120.068442 L245.227483,120.068442 C249.545476,120.068442 253.044898,123.563234 253.044898,127.874328 L253.044898,128.725706 Z" id="Fill-105" fill="#4D4D4D"></path>
                            <path d="M235.384555,120.068707 L230.407127,120.068707 C226.505338,120.068707 223.342287,123.227094 223.342287,127.122597 L223.342287,128.725971 L228.319715,128.725971 L228.319715,127.122597 C228.319715,123.227094 231.482766,120.068707 235.384555,120.068707" id="Fill-106" fill="#7A7A7A"></path>
                        </g>
                        <g id="Group-249" transform="translate(240.568595, 16.066160)">
                            <g id="Group-110">
                                <mask id="mask-30" fill="white">
                                    <use xlink:href="#path-29"></use>
                                </mask>
                                <g id="Clip-109"></g>
                                <path d="M38.4636185,127.494397 C37.1021706,127.494397 35.9983226,126.392708 35.9983226,125.033268 L35.9983226,20.5296204 C35.9983226,11.9908689 29.0409937,5.04379969 20.490164,5.04379969 C11.9382698,5.04379969 4.98094083,11.9908689 4.98094083,20.5296204 L4.98094083,24.5298186 C4.98094083,25.8892588 3.87762512,26.9909475 2.51617719,26.9909475 C1.15526149,26.9909475 0.0514135537,25.8892588 0.0514135537,24.5298186 L0.0514135537,20.5296204 C0.0514135537,9.27677138 9.22016397,0.121541824 20.490164,0.121541824 C31.7596317,0.121541824 40.9283821,9.27677138 40.9283821,20.5296204 L40.9283821,125.033268 C40.9283821,126.392708 39.8245342,127.494397 38.4636185,127.494397" id="Fill-108" fill="#4D4D4D" mask="url(#mask-30)"></path>
                            </g>
                            <g id="Group-113" transform="translate(0.000000, 23.383648)">
                                <mask id="mask-32" fill="white">
                                    <use xlink:href="#path-31"></use>
                                </mask>
                                <g id="Clip-112"></g>
                                <path d="M7.58328628,1.9663522 L-2.5509319,1.9663522 C-3.00545752,1.9663522 -3.37269719,1.59912264 -3.37269719,1.14633019 C-3.37269719,0.693006289 -3.00545752,0.32577673 -2.5509319,0.32577673 L7.58328628,0.32577673 C8.0378119,0.32577673 8.40505157,0.693006289 8.40505157,1.14633019 C8.40505157,1.59912264 8.0378119,1.9663522 7.58328628,1.9663522" id="Fill-111" fill="#595959" mask="url(#mask-32)"></path>
                            </g>
                            <g id="Group-116" transform="translate(0.000000, 19.663522)">
                                <mask id="mask-34" fill="white">
                                    <use xlink:href="#path-33"></use>
                                </mask>
                                <g id="Clip-115"></g>
                                <path d="M7.58328628,2.10909874 L-2.5509319,2.10909874 C-3.00545752,2.10909874 -3.37269719,1.74186918 -3.37269719,1.28907673 C-3.37269719,0.83575283 -3.00545752,0.46852327 -2.5509319,0.46852327 L7.58328628,0.46852327 C8.0378119,0.46852327 8.40505157,0.83575283 8.40505157,1.28907673 C8.40505157,1.74186918 8.0378119,2.10909874 7.58328628,2.10909874" id="Fill-114" fill="#595959" mask="url(#mask-34)"></path>
                            </g>
                            <g id="Group-119" transform="translate(0.000000, 15.411950)">
                                <mask id="mask-36" fill="white">
                                    <use xlink:href="#path-35"></use>
                                </mask>
                                <g id="Clip-118"></g>
                                <path d="M7.79484826,3.60012516 C7.74588298,3.60012516 7.69585322,3.59587358 7.64688793,3.58683899 L-2.32233851,1.76716604 C-2.76888066,1.68585472 -3.06426909,1.25804025 -2.98283769,0.81268805 C-2.90193851,0.366804403 -2.47189554,0.0761031447 -2.02695008,0.153162893 L7.94174413,1.9723044 C8.38775405,2.05414717 8.68420694,2.48196164 8.60224331,2.92731384 C8.52985983,3.32324151 8.18390942,3.60012516 7.79484826,3.60012516" id="Fill-117" fill="#595959" mask="url(#mask-36)"></path>
                            </g>
                            <g id="Group-122" transform="translate(0.000000, 10.628931)">
                                <mask id="mask-38" fill="white">
                                    <use xlink:href="#path-37"></use>
                                </mask>
                                <g id="Clip-121"></g>
                                <path d="M8.50899636,5.91563774 C8.40680793,5.91563774 8.30249058,5.89597421 8.20296331,5.85558428 L-1.19890446,2.07912516 C-1.62043174,1.90959371 -1.82427636,1.43182327 -1.65502678,1.01144906 C-1.48471273,0.590543396 -1.00410777,0.388593711 -0.585773884,0.556530818 L8.81556165,4.33352138 C9.23655669,4.50252138 9.44093355,4.98029182 9.27168397,5.40066604 C9.1418195,5.72059686 8.83365752,5.91563774 8.50899636,5.91563774" id="Fill-120" fill="#595959" mask="url(#mask-38)"></path>
                            </g>
                            <path d="M9.6800119,14.3032991 C9.52566479,14.3032991 9.36918876,14.2602519 9.23027636,14.1693745 L0.753426777,8.62585566 C0.373945785,8.37820157 0.267499504,7.86960723 0.515519339,7.4901544 C0.764603636,7.11229591 1.27288463,7.00494371 1.65343008,7.25366069 L10.1308119,12.7971796 C10.5102929,13.0448336 10.6162069,13.553428 10.3681871,13.9323494 C10.2101144,14.1725632 9.9477243,14.3032991 9.6800119,14.3032991" id="Fill-123" fill="#595959"></path>
                            <path d="M11.259036,12.3433242 C11.051998,12.3433242 10.8444278,12.265733 10.6842261,12.1100192 L3.43736331,5.03646572 C3.11270215,4.71972358 3.1068476,4.19996887 3.42405752,3.87578648 C3.74020298,3.55319843 4.26232198,3.54682107 4.58645091,3.86250031 L11.8333137,10.9360538 C12.1574426,11.2527959 12.1638294,11.7725506 11.8466195,12.096733 C11.6858856,12.26095 11.4719286,12.3433242 11.259036,12.3433242" id="Fill-125" fill="#595959"></path>
                            <path d="M13.1852347,10.7235814 C12.9239091,10.7235814 12.6668413,10.5997544 12.5077041,10.3685752 L6.76226612,2.03283616 C6.50519835,1.65976069 6.60046777,1.14850912 6.97302975,0.89182044 C7.34931736,0.635131761 7.85919504,0.730260692 8.11679504,1.10280472 L13.8617008,9.43801226 C14.1187686,9.81161918 14.0240314,10.3223393 13.6509372,10.579028 C13.5077669,10.6768142 13.3459686,10.7235814 13.1852347,10.7235814" id="Fill-127" fill="#595959"></path>
                            <g id="Group-131" transform="translate(10.112397, 0.531447)">
                                <mask id="mask-40" fill="white">
                                    <use xlink:href="#path-39"></use>
                                </mask>
                                <g id="Clip-130"></g>
                                <path d="M5.28596264,8.97198679 C4.9682205,8.97198679 4.6648486,8.78544906 4.53072628,8.47508428 L0.528878347,-0.820978616 C0.350048595,-1.23710126 0.542184132,-1.71965472 0.959453554,-1.8987522 C1.37246512,-2.07784969 1.85945686,-1.88546604 2.03881884,-1.46881195 L6.04119901,7.82725094 C6.22002876,8.24337358 6.02789322,8.72592704 5.61009157,8.90502453 C5.50524198,8.95019748 5.39453785,8.97198679 5.28596264,8.97198679" id="Fill-129" fill="#595959" mask="url(#mask-40)"></path>
                            </g>
                            <g id="Group-134" transform="translate(14.902479, 0.000000)">
                                <mask id="mask-42" fill="white">
                                    <use xlink:href="#path-41"></use>
                                </mask>
                                <g id="Clip-133"></g>
                                <path d="M2.9423881,8.73219811 C2.56131041,8.73219811 2.21961785,8.46647484 2.13818645,8.07905031 L0.0768542149,-1.8281761 C-0.0152218182,-2.27193396 0.270054215,-2.70612579 0.714999669,-2.79806604 C1.15675174,-2.89213208 1.59371372,-2.60621384 1.68685421,-2.16245597 L3.74818645,7.74477044 C3.84026248,8.1885283 3.55445421,8.62272013 3.11004099,8.71519182 C3.05415669,8.72688365 2.99774017,8.73219811 2.9423881,8.73219811" id="Fill-132" fill="#595959" mask="url(#mask-42)"></path>
                            </g>
                            <g id="Group-137" transform="translate(19.160331, 0.000000)">
                                <mask id="mask-44" fill="white">
                                    <use xlink:href="#path-43"></use>
                                </mask>
                                <g id="Clip-136"></g>
                                <path d="M1.32908826,8.46259528 C0.875094876,8.46259528 0.507855207,8.09536572 0.507855207,7.64204182 L0.507855207,-2.47616887 C0.507855207,-2.92949277 0.875094876,-3.29672233 1.32908826,-3.29672233 C1.78361388,-3.29672233 2.15085355,-2.92949277 2.15085355,-2.47616887 L2.15085355,7.64204182 C2.15085355,8.09536572 1.78361388,8.46259528 1.32908826,8.46259528" id="Fill-135" fill="#595959" mask="url(#mask-44)"></path>
                            </g>
                            <g id="Group-140" transform="translate(35.659504, 23.383648)">
                                <mask id="mask-46" fill="white">
                                    <use xlink:href="#path-45"></use>
                                </mask>
                                <g id="Clip-139"></g>
                                <path d="M7.80208661,1.9663522 L-2.33159934,1.9663522 C-2.78612496,1.9663522 -3.15336463,1.59912264 -3.15336463,1.14633019 C-3.15336463,0.693006289 -2.78612496,0.32577673 -2.33159934,0.32577673 L7.80208661,0.32577673 C8.25608,0.32577673 8.62331967,0.693006289 8.62331967,1.14633019 C8.62331967,1.59912264 8.25608,1.9663522 7.80208661,1.9663522" id="Fill-138" fill="#595959" mask="url(#mask-46)"></path>
                            </g>
                            <g id="Group-143" transform="translate(35.659504, 19.663522)">
                                <mask id="mask-48" fill="white">
                                    <use xlink:href="#path-47"></use>
                                </mask>
                                <g id="Clip-142"></g>
                                <path d="M7.80208661,2.10909874 L-2.33159934,2.10909874 C-2.78612496,2.10909874 -3.15336463,1.74186918 -3.15336463,1.28907673 C-3.15336463,0.83575283 -2.78612496,0.46852327 -2.33159934,0.46852327 L7.80208661,0.46852327 C8.25608,0.46852327 8.62331967,0.83575283 8.62331967,1.28907673 C8.62331967,1.74186918 8.25608,2.10909874 7.80208661,2.10909874" id="Fill-141" fill="#595959" mask="url(#mask-48)"></path>
                            </g>
                            <g id="Group-146" transform="translate(35.127273, 15.411950)">
                                <mask id="mask-50" fill="white">
                                    <use xlink:href="#path-49"></use>
                                </mask>
                                <g id="Clip-145"></g>
                                <path d="M-2.01092992,3.60012516 C-2.39999107,3.60012516 -2.74647372,3.32324151 -2.81885719,2.92731384 C-2.9002886,2.48196164 -2.60436793,2.05414717 -2.15782579,1.9723044 L7.81086843,0.153162893 C8.25847504,0.0766345912 8.68585686,0.367335849 8.76675603,0.81268805 C8.84818744,1.25804025 8.55226678,1.68585472 8.10625686,1.76716604 L-1.86296959,3.58683899 C-1.91246711,3.59587358 -1.96196463,3.60012516 -2.01092992,3.60012516" id="Fill-144" fill="#595959" mask="url(#mask-50)"></path>
                            </g>
                            <g id="Group-149" transform="translate(32.466116, 10.628931)">
                                <mask id="mask-52" fill="white">
                                    <use xlink:href="#path-51"></use>
                                </mask>
                                <g id="Clip-148"></g>
                                <path d="M-0.0644,5.91563774 C-0.389061157,5.91563774 -0.69722314,5.72059686 -0.826555372,5.40066604 C-0.995804959,4.98029182 -0.791960331,4.50252138 -0.370433058,4.33352138 L9.03037025,0.556530818 C9.44710744,0.388062264 9.92877686,0.590543396 10.0990909,1.01144906 C10.2683405,1.43182327 10.0644959,1.90959371 9.6429686,2.07912516 L0.242165289,5.85558428 C0.142105785,5.89597421 0.0383206612,5.91563774 -0.0644,5.91563774" id="Fill-147" fill="#595959" mask="url(#mask-52)"></path>
                            </g>
                            <path d="M31.2301679,14.3032991 C30.9624555,14.3032991 30.7000655,14.1725632 30.5419927,13.9323494 C30.2939729,13.553428 30.3998869,13.0448336 30.7793679,12.7971796 L39.2578142,7.25366069 C39.6372952,7.00441226 40.1466407,7.11176447 40.395725,7.4901544 C40.6432126,7.86960723 40.5372985,8.37820157 40.1578175,8.62585566 L31.6799035,14.1693745 C31.5409911,14.2602519 31.384515,14.3032991 31.2301679,14.3032991" id="Fill-150" fill="#595959"></path>
                            <path d="M29.6522083,12.3433242 C29.4387835,12.3433242 29.2253587,12.26095 29.0646248,12.096733 C28.7474149,11.7725506 28.7538017,11.2527959 29.0773983,10.9360538 L36.3247934,3.86250031 C36.6489223,3.54682107 37.1705091,3.55319843 37.4866545,3.87578648 C37.8043967,4.19996887 37.7980099,4.71972358 37.473881,5.03646572 L30.226486,12.1100192 C30.0668165,12.265733 29.8592463,12.3433242 29.6522083,12.3433242" id="Fill-152" fill="#595959"></path>
                            <path d="M27.7254774,10.7235814 C27.5647435,10.7235814 27.4034774,10.6768142 27.2603071,10.579028 C26.8872129,10.3223393 26.7924757,9.81161918 27.0490112,9.43801226 L32.793917,1.10280472 C33.0520493,0.730260692 33.5624592,0.635131761 33.9376823,0.89182044 C34.3107765,1.14850912 34.4055137,1.65976069 34.148446,2.03283616 L28.4035402,10.3685752 C28.244403,10.5997544 27.986803,10.7235814 27.7254774,10.7235814" id="Fill-154" fill="#595959"></path>
                            <g id="Group-158" transform="translate(24.482645, 0.531447)">
                                <mask id="mask-54" fill="white">
                                    <use xlink:href="#path-53"></use>
                                </mask>
                                <g id="Clip-157"></g>
                                <path d="M1.03018711,8.97198679 C0.921611901,8.97198679 0.810907769,8.95019748 0.706058182,8.90502453 C0.288256529,8.72592704 0.0961209917,8.24337358 0.274950744,7.82725094 L4.27733091,-1.46881195 C4.45669289,-1.88546604 4.9431524,-2.07784969 5.3566962,-1.8987522 C5.77343339,-1.71965472 5.96610116,-1.23710126 5.7872714,-0.820978616 L1.78489124,8.47508428 C1.65076893,8.78544906 1.34792926,8.97198679 1.03018711,8.97198679" id="Fill-156" fill="#595959" mask="url(#mask-54)"></path>
                            </g>
                            <g id="Group-161" transform="translate(21.821488, 0.000000)">
                                <mask id="mask-56" fill="white">
                                    <use xlink:href="#path-55"></use>
                                </mask>
                                <g id="Clip-160"></g>
                                <path d="M1.24488926,8.73219811 C1.18953719,8.73219811 1.13312066,8.72688365 1.07723636,8.71519182 C0.63282314,8.62272013 0.347014876,8.1885283 0.439090909,7.74477044 L2.50042314,-2.16245597 C2.59356364,-2.60621384 3.02786446,-2.89213208 3.47227769,-2.79806604 C3.91669091,-2.70612579 4.20249917,-2.27193396 4.11042314,-1.8281761 L2.04855868,8.07905031 C1.9676595,8.46647484 1.62596694,8.73219811 1.24488926,8.73219811" id="Fill-159" fill="#595959" mask="url(#mask-56)"></path>
                            </g>
                            <g id="Group-164" transform="translate(19.160331, 0.000000)">
                                <mask id="mask-58" fill="white">
                                    <use xlink:href="#path-57"></use>
                                </mask>
                                <g id="Clip-163"></g>
                                <path d="M1.26096264,8.46259528 C0.806437025,8.46259528 0.439197355,8.09536572 0.439197355,7.64204182 L0.439197355,-2.47616887 C0.439197355,-2.92949277 0.806437025,-3.29672233 1.26096264,-3.29672233 C1.71548826,-3.29672233 2.08272793,-2.92949277 2.08272793,-2.47616887 L2.08272793,7.64204182 C2.08272793,8.09536572 1.71548826,8.46259528 1.26096264,8.46259528" id="Fill-162" fill="#595959" mask="url(#mask-58)"></path>
                            </g>
                            <g id="Group-167" transform="translate(35.659504, 27.103774)">
                                <mask id="mask-60" fill="white">
                                    <use xlink:href="#path-59"></use>
                                </mask>
                                <g id="Clip-166"></g>
                                <path d="M7.80208661,1.77407484 L-2.33159934,1.77407484 C-2.78612496,1.77407484 -3.15336463,1.40684528 -3.15336463,0.953521384 C-3.15336463,0.500728931 -2.78612496,0.133499371 -2.33159934,0.133499371 L7.80208661,0.133499371 C8.25608,0.133499371 8.62331967,0.500728931 8.62331967,0.953521384 C8.62331967,1.40684528 8.25608,1.77407484 7.80208661,1.77407484" id="Fill-165" fill="#595959" mask="url(#mask-60)"></path>
                            </g>
                            <g id="Group-170" transform="translate(35.659504, 30.292453)">
                                <mask id="mask-62" fill="white">
                                    <use xlink:href="#path-61"></use>
                                </mask>
                                <g id="Clip-169"></g>
                                <path d="M7.80208661,2.11818648 L-2.33159934,2.11818648 C-2.78612496,2.11818648 -3.15336463,1.75095692 -3.15336463,1.29816447 C-3.15336463,0.844840566 -2.78612496,0.477611006 -2.33159934,0.477611006 L7.80208661,0.477611006 C8.25608,0.477611006 8.62331967,0.844840566 8.62331967,1.29816447 C8.62331967,1.75095692 8.25608,2.11818648 7.80208661,2.11818648" id="Fill-168" fill="#595959" mask="url(#mask-62)"></path>
                            </g>
                            <g id="Group-173" transform="translate(35.659504, 34.012579)">
                                <mask id="mask-64" fill="white">
                                    <use xlink:href="#path-63"></use>
                                </mask>
                                <g id="Clip-172"></g>
                                <path d="M7.80208661,1.93079843 L-2.33159934,1.93079843 C-2.78612496,1.93079843 -3.15336463,1.56356887 -3.15336463,1.11024497 C-3.15336463,0.657452516 -2.78612496,0.289691509 -2.33159934,0.289691509 L7.80208661,0.289691509 C8.25608,0.289691509 8.62331967,0.657452516 8.62331967,1.11024497 C8.62331967,1.56356887 8.25608,1.93079843 7.80208661,1.93079843" id="Fill-171" fill="#595959" mask="url(#mask-64)"></path>
                            </g>
                            <g id="Group-176" transform="translate(35.659504, 37.732704)">
                                <mask id="mask-66" fill="white">
                                    <use xlink:href="#path-65"></use>
                                </mask>
                                <g id="Clip-175"></g>
                                <path d="M7.80208661,1.74346352 L-2.33159934,1.74346352 C-2.78612496,1.74346352 -3.15336463,1.37623396 -3.15336463,0.923441509 C-3.15336463,0.47011761 -2.78612496,0.10288805 -2.33159934,0.10288805 L7.80208661,0.10288805 C8.25608,0.10288805 8.62331967,0.47011761 8.62331967,0.923441509 C8.62331967,1.37623396 8.25608,1.74346352 7.80208661,1.74346352" id="Fill-174" fill="#595959" mask="url(#mask-66)"></path>
                            </g>
                            <g id="Group-179" transform="translate(35.659504, 40.921384)">
                                <mask id="mask-68" fill="white">
                                    <use xlink:href="#path-67"></use>
                                </mask>
                                <g id="Clip-178"></g>
                                <path d="M7.80208661,2.08778774 L-2.33159934,2.08778774 C-2.78612496,2.08778774 -3.15336463,1.72055818 -3.15336463,1.26723428 C-3.15336463,0.814441824 -2.78612496,0.447212264 -2.33159934,0.447212264 L7.80208661,0.447212264 C8.25608,0.447212264 8.62331967,0.814441824 8.62331967,1.26723428 C8.62331967,1.72055818 8.25608,2.08778774 7.80208661,2.08778774" id="Fill-177" fill="#595959" mask="url(#mask-68)"></path>
                            </g>
                            <g id="Group-182" transform="translate(35.659504, 44.641509)">
                                <mask id="mask-70" fill="white">
                                    <use xlink:href="#path-69"></use>
                                </mask>
                                <g id="Clip-181"></g>
                                <path d="M7.80208661,1.90018711 L-2.33159934,1.90018711 C-2.78612496,1.90018711 -3.15336463,1.53295755 -3.15336463,1.07963365 C-3.15336463,0.626841195 -2.78612496,0.259080189 -2.33159934,0.259080189 L7.80208661,0.259080189 C8.25608,0.259080189 8.62331967,0.626841195 8.62331967,1.07963365 C8.62331967,1.53295755 8.25608,1.90018711 7.80208661,1.90018711" id="Fill-180" fill="#595959" mask="url(#mask-70)"></path>
                            </g>
                            <g id="Group-185" transform="translate(35.659504, 48.361635)">
                                <mask id="mask-72" fill="white">
                                    <use xlink:href="#path-71"></use>
                                </mask>
                                <g id="Clip-184"></g>
                                <path d="M7.80208661,1.71311792 L-2.33159934,1.71311792 C-2.78612496,1.71311792 -3.15336463,1.34588836 -3.15336463,0.892564465 C-3.15336463,0.439772013 -2.78612496,0.0720110063 -2.33159934,0.0720110063 L7.80208661,0.0720110063 C8.25608,0.0720110063 8.62331967,0.439772013 8.62331967,0.892564465 C8.62331967,1.34588836 8.25608,1.71311792 7.80208661,1.71311792" id="Fill-183" fill="#595959" mask="url(#mask-72)"></path>
                            </g>
                            <g id="Group-188" transform="translate(35.659504, 51.550314)">
                                <mask id="mask-74" fill="white">
                                    <use xlink:href="#path-73"></use>
                                </mask>
                                <g id="Clip-187"></g>
                                <path d="M7.80208661,2.05691069 L-2.33159934,2.05691069 C-2.78612496,2.05691069 -3.15336463,1.68968113 -3.15336463,1.23635723 C-3.15336463,0.78356478 -2.78612496,0.415803774 -2.33159934,0.415803774 L7.80208661,0.415803774 C8.25608,0.415803774 8.62331967,0.78356478 8.62331967,1.23635723 C8.62331967,1.68968113 8.25608,2.05691069 7.80208661,2.05691069" id="Fill-186" fill="#595959" mask="url(#mask-74)"></path>
                            </g>
                            <g id="Group-191" transform="translate(35.659504, 55.270440)">
                                <mask id="mask-76" fill="white">
                                    <use xlink:href="#path-75"></use>
                                </mask>
                                <g id="Clip-190"></g>
                                <path d="M7.80208661,1.86957579 L-2.33159934,1.86957579 C-2.78612496,1.86957579 -3.15336463,1.50234623 -3.15336463,1.04902233 C-3.15336463,0.596229874 -2.78612496,0.229000314 -2.33159934,0.229000314 L7.80208661,0.229000314 C8.25608,0.229000314 8.62331967,0.596229874 8.62331967,1.04902233 C8.62331967,1.50234623 8.25608,1.86957579 7.80208661,1.86957579" id="Fill-189" fill="#595959" mask="url(#mask-76)"></path>
                            </g>
                            <g id="Group-194" transform="translate(35.659504, 58.990566)">
                                <mask id="mask-78" fill="white">
                                    <use xlink:href="#path-77"></use>
                                </mask>
                                <g id="Clip-193"></g>
                                <path d="M7.80208661,1.68197516 L-2.33159934,1.68197516 C-2.78612496,1.68197516 -3.15336463,1.3147456 -3.15336463,0.861953145 C-3.15336463,0.408629245 -2.78612496,0.0413996855 -2.33159934,0.0413996855 L7.80208661,0.0413996855 C8.25608,0.0413996855 8.62331967,0.408629245 8.62331967,0.861953145 C8.62331967,1.3147456 8.25608,1.68197516 7.80208661,1.68197516" id="Fill-192" fill="#595959" mask="url(#mask-78)"></path>
                            </g>
                            <g id="Group-197" transform="translate(35.659504, 62.179245)">
                                <mask id="mask-80" fill="white">
                                    <use xlink:href="#path-79"></use>
                                </mask>
                                <g id="Clip-196"></g>
                                <path d="M7.80208661,2.02629937 L-2.33159934,2.02629937 C-2.78612496,2.02629937 -3.15336463,1.65906981 -3.15336463,1.20574591 C-3.15336463,0.752953459 -2.78612496,0.385723899 -2.33159934,0.385723899 L7.80208661,0.385723899 C8.25608,0.385723899 8.62331967,0.752953459 8.62331967,1.20574591 C8.62331967,1.65906981 8.25608,2.02629937 7.80208661,2.02629937" id="Fill-195" fill="#595959" mask="url(#mask-80)"></path>
                            </g>
                            <g id="Group-200" transform="translate(35.659504, 65.899371)">
                                <mask id="mask-82" fill="white">
                                    <use xlink:href="#path-81"></use>
                                </mask>
                                <g id="Clip-199"></g>
                                <path d="M7.80208661,1.83869874 L-2.33159934,1.83869874 C-2.78612496,1.83869874 -3.15336463,1.47146918 -3.15336463,1.01814528 C-3.15336463,0.56535283 -2.78612496,0.19812327 -2.33159934,0.19812327 L7.80208661,0.19812327 C8.25608,0.19812327 8.62331967,0.56535283 8.62331967,1.01814528 C8.62331967,1.47146918 8.25608,1.83869874 7.80208661,1.83869874" id="Fill-198" fill="#595959" mask="url(#mask-82)"></path>
                            </g>
                            <g id="Group-203" transform="translate(35.659504, 69.619497)">
                                <mask id="mask-84" fill="white">
                                    <use xlink:href="#path-83"></use>
                                </mask>
                                <g id="Clip-202"></g>
                                <path d="M7.80208661,1.65157642 L-2.33159934,1.65157642 C-2.78612496,1.65157642 -3.15336463,1.28434686 -3.15336463,0.831022956 C-3.15336463,0.378230503 -2.78612496,0.0104694969 -2.33159934,0.0104694969 L7.80208661,0.0104694969 C8.25608,0.0104694969 8.62331967,0.378230503 8.62331967,0.831022956 C8.62331967,1.28434686 8.25608,1.65157642 7.80208661,1.65157642" id="Fill-201" fill="#595959" mask="url(#mask-84)"></path>
                            </g>
                            <g id="Group-206" transform="translate(35.659504, 72.808176)">
                                <mask id="mask-86" fill="white">
                                    <use xlink:href="#path-85"></use>
                                </mask>
                                <g id="Clip-205"></g>
                                <path d="M7.80208661,1.99542233 L-2.33159934,1.99542233 C-2.78612496,1.99542233 -3.15336463,1.62819277 -3.15336463,1.17486887 C-3.15336463,0.722076415 -2.78612496,0.354846855 -2.33159934,0.354846855 L7.80208661,0.354846855 C8.25608,0.354846855 8.62331967,0.722076415 8.62331967,1.17486887 C8.62331967,1.62819277 8.25608,1.99542233 7.80208661,1.99542233" id="Fill-204" fill="#595959" mask="url(#mask-86)"></path>
                            </g>
                            <g id="Group-209" transform="translate(35.659504, 76.528302)">
                                <mask id="mask-88" fill="white">
                                    <use xlink:href="#path-87"></use>
                                </mask>
                                <g id="Clip-208"></g>
                                <path d="M7.80208661,1.80808742 L-2.33159934,1.80808742 C-2.78612496,1.80808742 -3.15336463,1.44085786 -3.15336463,0.988065409 C-3.15336463,0.534741509 -2.78612496,0.16751195 -2.33159934,0.16751195 L7.80208661,0.16751195 C8.25608,0.16751195 8.62331967,0.534741509 8.62331967,0.988065409 C8.62331967,1.44085786 8.25608,1.80808742 7.80208661,1.80808742" id="Fill-207" fill="#595959" mask="url(#mask-88)"></path>
                            </g>
                            <g id="Group-212" transform="translate(35.659504, 79.716981)">
                                <mask id="mask-90" fill="white">
                                    <use xlink:href="#path-89"></use>
                                </mask>
                                <g id="Clip-211"></g>
                                <path d="M7.80208661,2.15188019 L-2.33159934,2.15188019 C-2.78612496,2.15188019 -3.15336463,1.78465063 -3.15336463,1.33185818 C-3.15336463,0.878534277 -2.78612496,0.511304717 -2.33159934,0.511304717 L7.80208661,0.511304717 C8.25608,0.511304717 8.62331967,0.878534277 8.62331967,1.33185818 C8.62331967,1.78465063 8.25608,2.15188019 7.80208661,2.15188019" id="Fill-210" fill="#595959" mask="url(#mask-90)"></path>
                            </g>
                            <g id="Group-215" transform="translate(35.659504, 83.437107)">
                                <mask id="mask-92" fill="white">
                                    <use xlink:href="#path-91"></use>
                                </mask>
                                <g id="Clip-214"></g>
                                <path d="M7.80208661,1.96481101 L-2.33159934,1.96481101 C-2.78612496,1.96481101 -3.15336463,1.59758145 -3.15336463,1.14478899 C-3.15336463,0.691465094 -2.78612496,0.323704088 -2.33159934,0.323704088 L7.80208661,0.323704088 C8.25608,0.323704088 8.62331967,0.691465094 8.62331967,1.14478899 C8.62331967,1.59758145 8.25608,1.96481101 7.80208661,1.96481101" id="Fill-213" fill="#595959" mask="url(#mask-92)"></path>
                            </g>
                            <g id="Group-218" transform="translate(35.659504, 87.157233)">
                                <mask id="mask-94" fill="white">
                                    <use xlink:href="#path-93"></use>
                                </mask>
                                <g id="Clip-217"></g>
                                <path d="M7.80208661,1.77768868 L-2.33159934,1.77768868 C-2.78612496,1.77768868 -3.15336463,1.41045912 -3.15336463,0.95713522 C-3.15336463,0.504342767 -2.78612496,0.136581761 -2.33159934,0.136581761 L7.80208661,0.136581761 C8.25608,0.136581761 8.62331967,0.504342767 8.62331967,0.95713522 C8.62331967,1.41045912 8.25608,1.77768868 7.80208661,1.77768868" id="Fill-216" fill="#595959" mask="url(#mask-94)"></path>
                            </g>
                            <g id="Group-221" transform="translate(35.659504, 90.345912)">
                                <mask id="mask-96" fill="white">
                                    <use xlink:href="#path-95"></use>
                                </mask>
                                <g id="Clip-220"></g>
                                <path d="M7.80208661,2.12153459 L-2.33159934,2.12153459 C-2.78612496,2.12153459 -3.15336463,1.75430503 -3.15336463,1.30098113 C-3.15336463,0.848188679 -2.78612496,0.480427673 -2.33159934,0.480427673 L7.80208661,0.480427673 C8.25608,0.480427673 8.62331967,0.848188679 8.62331967,1.30098113 C8.62331967,1.75430503 8.25608,2.12153459 7.80208661,2.12153459" id="Fill-219" fill="#595959" mask="url(#mask-96)"></path>
                            </g>
                            <g id="Group-224" transform="translate(35.659504, 94.066038)">
                                <mask id="mask-98" fill="white">
                                    <use xlink:href="#path-97"></use>
                                </mask>
                                <g id="Clip-223"></g>
                                <path d="M7.80208661,1.93419969 L-2.33159934,1.93419969 C-2.78612496,1.93419969 -3.15336463,1.56697013 -3.15336463,1.11417767 C-3.15336463,0.660853774 -2.78612496,0.293624214 -2.33159934,0.293624214 L7.80208661,0.293624214 C8.25608,0.293624214 8.62331967,0.660853774 8.62331967,1.11417767 C8.62331967,1.56697013 8.25608,1.93419969 7.80208661,1.93419969" id="Fill-222" fill="#595959" mask="url(#mask-98)"></path>
                            </g>
                            <g id="Group-227" transform="translate(35.659504, 97.786164)">
                                <mask id="mask-100" fill="white">
                                    <use xlink:href="#path-99"></use>
                                </mask>
                                <g id="Clip-226"></g>
                                <path d="M7.80208661,1.74659906 L-2.33159934,1.74659906 C-2.78612496,1.74659906 -3.15336463,1.3793695 -3.15336463,0.926577044 C-3.15336463,0.473253145 -2.78612496,0.106023585 -2.33159934,0.106023585 L7.80208661,0.106023585 C8.25608,0.106023585 8.62331967,0.473253145 8.62331967,0.926577044 C8.62331967,1.3793695 8.25608,1.74659906 7.80208661,1.74659906" id="Fill-225" fill="#595959" mask="url(#mask-100)"></path>
                            </g>
                            <g id="Group-230" transform="translate(35.659504, 100.974843)">
                                <mask id="mask-102" fill="white">
                                    <use xlink:href="#path-101"></use>
                                </mask>
                                <g id="Clip-229"></g>
                                <path d="M7.80208661,2.09092327 L-2.33159934,2.09092327 C-2.78612496,2.09092327 -3.15336463,1.72369371 -3.15336463,1.27036981 C-3.15336463,0.817577358 -2.78612496,0.450347799 -2.33159934,0.450347799 L7.80208661,0.450347799 C8.25608,0.450347799 8.62331967,0.817577358 8.62331967,1.27036981 C8.62331967,1.72369371 8.25608,2.09092327 7.80208661,2.09092327" id="Fill-228" fill="#595959" mask="url(#mask-102)"></path>
                            </g>
                            <g id="Group-233" transform="translate(35.659504, 104.694969)">
                                <mask id="mask-104" fill="white">
                                    <use xlink:href="#path-103"></use>
                                </mask>
                                <g id="Clip-232"></g>
                                <path d="M7.80208661,1.90332264 L-2.33159934,1.90332264 C-2.78612496,1.90332264 -3.15336463,1.53609308 -3.15336463,1.08276918 C-3.15336463,0.62997673 -2.78612496,0.26274717 -2.33159934,0.26274717 L7.80208661,0.26274717 C8.25608,0.26274717 8.62331967,0.62997673 8.62331967,1.08276918 C8.62331967,1.53609308 8.25608,1.90332264 7.80208661,1.90332264" id="Fill-231" fill="#595959" mask="url(#mask-104)"></path>
                            </g>
                            <g id="Group-236" transform="translate(35.659504, 108.415094)">
                                <mask id="mask-106" fill="white">
                                    <use xlink:href="#path-105"></use>
                                </mask>
                                <g id="Clip-235"></g>
                                <path d="M7.80208661,1.71620031 L-2.33159934,1.71620031 C-2.78612496,1.71620031 -3.15336463,1.34897075 -3.15336463,0.895646855 C-3.15336463,0.442854403 -2.78612496,0.0750933962 -2.33159934,0.0750933962 L7.80208661,0.0750933962 C8.25608,0.0750933962 8.62331967,0.442854403 8.62331967,0.895646855 C8.62331967,1.34897075 8.25608,1.71620031 7.80208661,1.71620031" id="Fill-234" fill="#595959" mask="url(#mask-106)"></path>
                            </g>
                            <g id="Group-239" transform="translate(35.659504, 111.603774)">
                                <mask id="mask-108" fill="white">
                                    <use xlink:href="#path-107"></use>
                                </mask>
                                <g id="Clip-238"></g>
                                <path d="M7.80208661,2.06004623 L-2.33159934,2.06004623 C-2.78612496,2.06004623 -3.15336463,1.69281667 -3.15336463,1.23949277 C-3.15336463,0.786700314 -2.78612496,0.418939308 -2.33159934,0.418939308 L7.80208661,0.418939308 C8.25608,0.418939308 8.62331967,0.786700314 8.62331967,1.23949277 C8.62331967,1.69281667 8.25608,2.06004623 7.80208661,2.06004623" id="Fill-237" fill="#595959" mask="url(#mask-108)"></path>
                            </g>
                            <g id="Group-242" transform="translate(35.659504, 115.323899)">
                                <mask id="mask-110" fill="white">
                                    <use xlink:href="#path-109"></use>
                                </mask>
                                <g id="Clip-241"></g>
                                <path d="M7.80208661,1.87271132 L-2.33159934,1.87271132 C-2.78612496,1.87271132 -3.15336463,1.50548176 -3.15336463,1.05268931 C-3.15336463,0.599365409 -2.78612496,0.232135849 -2.33159934,0.232135849 L7.80208661,0.232135849 C8.25608,0.232135849 8.62331967,0.599365409 8.62331967,1.05268931 C8.62331967,1.50548176 8.25608,1.87271132 7.80208661,1.87271132" id="Fill-240" fill="#595959" mask="url(#mask-110)"></path>
                            </g>
                            <g id="Group-245" transform="translate(35.659504, 119.044025)">
                                <mask id="mask-112" fill="white">
                                    <use xlink:href="#path-111"></use>
                                </mask>
                                <g id="Clip-244"></g>
                                <path d="M7.80208661,1.68505755 L-2.33159934,1.68505755 C-2.78612496,1.68505755 -3.15336463,1.31782799 -3.15336463,0.865035535 C-3.15336463,0.411711635 -2.78612496,0.0444820755 -2.33159934,0.0444820755 L7.80208661,0.0444820755 C8.25608,0.0444820755 8.62331967,0.411711635 8.62331967,0.865035535 C8.62331967,1.31782799 8.25608,1.68505755 7.80208661,1.68505755" id="Fill-243" fill="#595959" mask="url(#mask-112)"></path>
                            </g>
                            <g id="Group-248" transform="translate(35.659504, 122.232704)">
                                <mask id="mask-114" fill="white">
                                    <use xlink:href="#path-113"></use>
                                </mask>
                                <g id="Clip-247"></g>
                                <path d="M7.80208661,2.02943491 L-2.33159934,2.02943491 C-2.78612496,2.02943491 -3.15336463,1.66220535 -3.15336463,1.20888145 C-3.15336463,0.756088994 -2.78612496,0.388859434 -2.33159934,0.388859434 L7.80208661,0.388859434 C8.25608,0.388859434 8.62331967,0.756088994 8.62331967,1.20888145 C8.62331967,1.66220535 8.25608,2.02943491 7.80208661,2.02943491" id="Fill-246" fill="#595959" mask="url(#mask-114)"></path>
                            </g>
                        </g>
                        <g id="Group-268" transform="translate(0.000000, 29.352324)">
                            <path d="M251.021992,19.6206343 C251.021992,24.0736248 247.407077,27.6832097 242.94751,27.6832097 C238.487943,27.6832097 234.873027,24.0736248 234.873027,19.6206343 C234.873027,15.1676437 238.487943,11.5580588 242.94751,11.5580588 C247.407077,11.5580588 251.021992,15.1676437 251.021992,19.6206343 Z" id="Fill-250" fill="#FFF2E7"></path>
                            <path d="M241.467321,26.2498984 C239.361814,26.2498984 237.654415,24.5455494 237.654415,22.4426154 C237.654415,20.3396814 239.361814,18.6353324 241.467321,18.6353324 C243.573361,18.6353324 245.280227,20.3396814 245.280227,22.4426154 C245.280227,24.5455494 243.573361,26.2498984 241.467321,26.2498984 Z" id="Fill-252" fill="#FFFBF7"></path>
                            <path d="M229.863186,13.2326469 L229.863186,20.2950399 L256.03194,20.2950399 L256.03194,13.2326469 C256.03194,6.01719717 250.173669,0.167565094 242.947563,0.167565094 C235.721457,0.167565094 229.863186,6.01719717 229.863186,13.2326469 Z" id="Fill-254" fill="#4D4D4D"></path>
                            <path d="M234.991129,20.2949868 L229.86308,20.2949868 L229.86308,13.2325937 C229.86308,6.01714403 235.721351,0.16751195 242.947457,0.16751195 C243.825638,0.16751195 244.681999,0.257326415 245.511747,0.422074843 C239.5135,1.61198365 234.991129,6.89349937 234.991129,13.2325937 L234.991129,20.2949868 Z" id="Fill-256" fill="#7A7A7A"></path>
                            <path d="M118.85004,30.0294931 C117.851574,30.0294931 117.041518,29.2211629 117.041518,28.2241692 C117.041518,27.2271755 117.851574,26.4183138 118.85004,26.4183138 C119.848506,26.4183138 120.65803,27.2271755 120.65803,28.2241692 C120.65803,29.2211629 119.848506,30.0294931 118.85004,30.0294931 Z" id="Fill-258" fill="#323761"></path>
                            <polygon id="Fill-260" fill="#FFFFFF" points="0 136.581761 321.717917 136.581761 321.717917 120.695761 0 120.695761"></polygon>
                            <polygon id="Fill-262" fill="#EAEFEF" points="94.718562 120.778135 145.957012 120.778135 145.957012 112.412635 94.718562 112.412635"></polygon>
                            <path d="M100.745817,40.8769016 C94.792276,40.8769016 89.9665339,36.3293135 89.9665339,30.7198953 L89.9665339,27.01465 L85.583076,27.01465 L85.583076,43.7419299 C85.583076,53.9334802 94.3521207,62.1953481 105.168127,62.1953481 L108.643066,62.1953481 C119.459073,62.1953481 128.227585,53.9334802 128.227585,43.7419299 L128.227585,37.6988513 C126.263119,39.6524487 123.490726,40.8769016 120.409106,40.8769016 L100.745817,40.8769016 Z" id="Fill-263" fill="#323761"></path>
                            <path d="M110.952844,45.0267019 C108.802097,45.0267019 107.057975,43.7586704 107.057975,42.1951547 C107.057975,40.6311075 108.802097,39.3636075 110.952844,39.3636075 C113.103591,39.3636075 114.847181,40.6311075 114.847181,42.1951547 C114.847181,43.7586704 113.103591,45.0267019 110.952844,45.0267019 Z" id="Fill-264" fill="#DDBDB3"></path>
                            <path d="M125.572868,35.7778314 C126.443066,41.0891082 121.507685,44.0014352 118.011989,44.0014352 C115.243321,44.0014352 113.260227,43.4503252 111.903037,41.906473 C109.866719,39.5904289 110.634729,35.6598503 113.940419,35.6598503 C115.29548,35.6598503 116.581883,36.2428472 117.752792,36.9374478 C119.328197,37.8722623 120.218088,39.0908692 122.120283,39.0908692 C123.1262,39.0908692 125.156663,38.8363063 125.572868,35.7778314" id="Fill-265" fill="#4E5375"></path>
                            <path d="M97.0686298,35.7778314 C96.1989636,41.0891082 101.134345,44.0014352 104.630041,44.0014352 C107.398709,44.0014352 109.381271,43.4503252 110.738461,41.906473 C112.774779,39.5904289 112.006769,35.6598503 108.701612,35.6598503 C107.34655,35.6598503 106.059615,36.2428472 104.889238,36.9374478 C103.313833,37.8722623 102.42341,39.0908692 100.521747,39.0908692 C99.5152975,39.0908692 97.4848347,38.8363063 97.0686298,35.7778314" id="Fill-266" fill="#4E5375"></path>
                            <polygon id="Fill-267" fill="#FFD8CA" points="138.086906 120.778135 147.021474 120.778135 147.021474 67.3337453 138.086906 67.3337453"></polygon>
                        </g>
                    </g>
                </g>
            </g>
        </g>
    </g>
</svg>