<svg width="148px" height="127px" viewBox="0 0 148 127" version="1.1" xmlns="http://www.w3.org/2000/svg" xmlns:xlink="http://www.w3.org/1999/xlink">
    <!-- Generator: Sketch 46.2 (44496) - http://www.bohemiancoding.com/sketch -->
    <desc>Created with Sketch.</desc>
    <defs>
        <path d="M113.930636,84.2071947 C113.930636,88.9098711 110.281136,92.7272727 105.785057,92.7272727 L8.14557879,92.7272727 C3.64950003,92.7272727 0,88.9098711 0,84.2071947 L0,8.52007801 C0,3.81740167 3.64950003,0 8.14557879,0 L105.785057,0 C110.281136,0 113.930636,3.81740167 113.930636,8.52007801 L113.930636,84.2071947 Z" id="path-1"></path>
        <filter x="-29.8%" y="-28.0%" width="159.7%" height="173.3%" filterUnits="objectBoundingBox" id="filter-3">
            <feOffset dx="0" dy="8" in="SourceAlpha" result="shadowOffsetOuter1"></feOffset>
            <feGaussianBlur stdDeviation="10" in="shadowOffsetOuter1" result="shadowBlurOuter1"></feGaussianBlur>
            <feColorMatrix values="0 0 0 0 0.196078431   0 0 0 0 0.215686275   0 0 0 0 0.380392157  0 0 0 0.357648324 0" type="matrix" in="shadowBlurOuter1"></feColorMatrix>
        </filter>
    </defs>
    <g id="Page-1" stroke="none" stroke-width="1" fill="none" fill-rule="evenodd">
        <g id="ABOUT" transform="translate(-334.000000, -749.000000)">
            <g id="section-1" transform="translate(236.000000, 471.000000)">
                <g id="family" transform="translate(104.000000, 278.000000)">
                    <g id="father-+-mother-+-kid-+-father-+-mother-+-kid-Mask-Mask" transform="translate(10.924855, 10.909091)">
                        <mask id="mask-2" fill="white">
                            <use xlink:href="#path-1"></use>
                        </mask>
                        <g id="Mask">
                            <use fill="black" fill-opacity="1" filter="url(#filter-3)" xlink:href="#path-1"></use>
                            <use fill="#323761" fill-rule="evenodd" xlink:href="#path-1"></use>
                        </g>
                        <g id="father" mask="url(#mask-2)">
                            <g transform="translate(-15.606936, 10.129870)">
                                <polygon id="Fill-14" fill="#FFD8CA" points="39.7661756 53.4619783 44.8372129 53.4619783 44.8372129 46.9734613 39.7661756 46.9734613"></polygon>
                                <path d="M57.3925667,96.9447283 L29.7975661,96.9447283 L29.7975661,56.685106 C29.7975661,53.8446962 32.025128,51.4558245 34.8299616,51.4318897 C34.8434705,51.4318897 40.1345779,51.4317363 50.7032837,51.4314295 C53.0613797,51.4314295 57.5037799,51.3163586 57.3925667,51.6753798 L57.3925667,96.9447283 Z" id="Fill-20" fill="#FFFFFF"></path>
                                <path d="M43.6211572,48.8972147 L43.6211572,48.8972147 C35.4224855,49.1296579 28.5828762,42.8265348 28.3448989,34.8185214 L27.9914673,22.929397 C27.7534899,14.9213836 34.2071518,8.24128831 42.4058236,8.00884511 C50.6044953,7.77640191 57.4436333,14.079525 57.6816106,22.0875384 L58.0350423,33.9762025 C58.2730196,41.9842159 51.8193577,48.6647715 43.6211572,48.8972147" id="Fill-29" fill="#FFD8CA"></path>
                                <path d="M47.1936448,40.6387542 C46.8708439,41.5211178 46.2709526,42.2391602 45.495288,42.7261402 C44.826124,43.1477599 44.0226561,43.3949322 43.1555705,43.4193272 C42.2880136,43.4437223 41.4718221,43.2430386 40.7781536,42.8600827 C39.9751569,42.4177502 39.333325,41.7351497 38.9591587,40.872118 C38.6165656,40.0822714 39.2027909,39.2031298 40.0788302,39.1782745 L45.9750125,39.0111916 C46.8510518,38.9863363 47.4886425,39.8304963 47.1936448,40.6387542" id="Fill-30" fill="#FFFFFF"></path>
                                <path d="M61.7549723,31.1458425 C61.8298998,33.6709582 59.8172244,35.8729547 57.257908,35.9456795 L57.1495223,35.9489015 L56.8719606,26.6120495 L56.9803464,26.6092878 C59.5396627,26.536563 61.6800448,28.6207269 61.7549723,31.1458425" id="Fill-31" fill="#FFD8CA"></path>
                                <path d="M24.2494462,31.4100391 C24.3243737,33.9351547 26.465227,36.0193186 29.0240721,35.9470541 L29.132929,35.9438321 L28.8553674,26.6074404 L28.7465104,26.6102021 C26.1876653,26.6829269 24.1745186,28.8849234 24.2494462,31.4100391" id="Fill-32" fill="#FFD8CA"></path>
                                <path d="M49.6522579,29.2673503 L49.6753488,29.26689 L49.6833599,29.2664297 C50.8906824,29.2319085 51.954276,29.972965 52.3901751,31.0334583 C52.5852693,31.5075504 52.2323089,32.0258297 51.7097013,32.0405588 L51.7092301,32.0405588 C51.3925553,32.0493041 51.1032126,31.8647304 50.9868158,31.5765929 C50.7837104,31.0725824 50.2997447,30.6923882 49.7262429,30.7084981 L49.7182318,30.7089584 L49.6951409,30.7094187 C49.1221104,30.7259889 48.6612356,31.1324193 48.4882897,31.6474766 C48.3893288,31.9415978 48.1112959,32.1427417 47.7946212,32.1514871 C47.2720136,32.1662162 46.8893649,31.6691099 47.0552422,31.1848916 C47.4275235,30.1013841 48.4454066,29.3014113 49.6522579,29.2673503" id="Fill-33" fill="#323761"></path>
                                <path d="M36.965097,29.2673209 L36.9877166,29.2668606 L36.996199,29.2664003 C38.2030502,29.2323394 39.2671151,29.9729356 39.7030141,31.0334289 C39.8976372,31.507521 39.545148,32.0258003 39.0220692,32.0405294 C38.7053944,32.0492748 38.4160517,31.864701 38.2996549,31.5765635 C38.0965495,31.0730133 37.6125838,30.6923588 37.039082,30.7084687 L37.0305996,30.708929 L37.00798,30.7093893 C36.4349495,30.7259595 35.9740746,31.1323899 35.8011288,31.6474472 C35.7021679,31.9415684 35.424135,32.1427123 35.1074602,32.1514577 C34.5848526,32.1661868 34.2017327,31.6690805 34.3680812,31.1848622 C34.7403626,30.1013547 35.7582457,29.3013819 36.965097,29.2673209" id="Fill-34" fill="#323761"></path>
                                <path d="M50.2813246,34.5976156 C47.6640454,34.6721816 45.4732404,32.6524573 45.3973704,30.0965027 C45.3215004,27.5400878 47.3883687,25.4002295 50.0056479,25.3256636 C52.6233983,25.2515579 54.813732,27.2708219 54.889602,29.8272368 C54.9659432,32.3831914 52.8986037,34.52351 50.2813246,34.5976156 M36.090337,35.0003637 C33.4735291,35.0744694 31.2822529,33.0547451 31.2063829,30.4987905 C31.1305129,27.9423756 33.1978524,25.8025173 35.8151316,25.7279514 C38.4319395,25.6538457 40.6232157,27.67357 40.6990857,30.2295246 C40.7749557,32.7854792 38.7076162,34.9257978 36.090337,35.0003637 M49.965121,23.9521774 C46.7248597,24.0442341 44.14151,26.5799363 44.0006086,29.6937546 L42.0689868,29.7485283 C41.7438297,26.6480582 39.0139236,24.2628688 35.7741335,24.3544652 C32.3816609,24.4506645 29.7017066,27.2247935 29.8001962,30.5388352 C29.8986858,33.8524165 32.7388625,36.4700491 36.1313351,36.3738499 C39.1835708,36.2868563 41.6519374,34.0305463 42.0458959,31.1657414 L44.1080518,31.1072854 C44.6716574,33.9449335 47.2696157,36.0576351 50.3223226,35.9711018 C53.7147952,35.8749025 56.3947496,33.1012338 56.29626,29.7871921 C56.1977703,26.4736108 53.3575936,23.8559781 49.965121,23.9521774" id="Fill-35" fill="#323761"></path>
                                <path d="M28.993469,30.0182551 C28.908576,27.723115 28.6280598,21.9255543 30.941395,20.6294964 C32.0643821,20.0008453 33.4309754,20.0977342 34.631935,20.2103957 C38.9711685,20.6141745 43.0197356,22.6763305 50.5932091,21.4595864 C54.8083327,20.7822654 55.0754689,20.683574 56.2076836,19.8057156 C56.6759794,19.4424949 57.2836105,25.3500132 57.3103703,27.4833714 C57.322366,28.4702861 57.3786538,29.5392184 57.3680422,30.5261331 C57.3615829,31.1056638 57.2909925,31.8582427 57.3874199,32.4215502 C57.4266368,32.6540835 57.6291805,33.2282065 58.3867585,33.0037848 C59.0211494,32.8158654 58.9939283,31.9785651 59.050216,31.3611801 C59.4456146,27.0327254 59.5392737,24.6844091 59.3302708,20.6403119 C59.2301524,18.6863109 59.2679851,18.7219119 59.0986604,16.984221 C59.7418174,16.4849052 56.1504731,16.547545 56.2076836,15.6899657 C56.2925766,14.4173414 56.7576428,13.3105549 56.2076836,13.8873817 C53.4523511,14.7377507 55.6877138,9.99380034 54.8881506,8.43907166 C53.995851,6.70363394 57.5811975,7.99293213 56.326257,8.62608975 C56.932504,8.08621585 57.3791152,7.08307787 56.5218801,6.48597193 C56.1315567,6.21423239 55.3329163,6.39674402 54.8973781,6.49633679 C53.690882,6.77258278 52.6015752,7.72254453 51.290347,7.49316572 C51.8555316,6.22730113 50.3592919,6.42468407 49.566188,6.5738479 C48.0072013,6.86631715 46.8952871,6.60268924 45.2897015,6.40981276 C40.1250678,5.79017451 36.2439798,6.77753989 31.9748754,9.38723084 C32.1275905,8.03619415 30.9326288,7.26333627 29.974814,8.49179725 C29.2592211,9.41021378 29.7422809,11.1276257 29.7422809,11.1276257 C29.7422809,11.1276257 27.4529373,11.1893642 27.2651576,12.8031275 C27.1096741,14.1447006 28.4601193,13.888283 28.4601193,13.888283 C27.9839801,14.4723202 27.7196121,15.6129052 27.5858133,16.0856329 C27.1170562,17.7363492 26.9763367,19.4776453 26.9795663,21.1851429 C26.9883325,26.7438613 26.990178,25.2215791 27.346821,30.7591171 C27.3786559,31.2512225 27.5073795,34.0434251 28.5394758,34.0434251 C29.6472376,34.0434251 29.0368382,31.1975956 28.993469,30.0182551" id="Fill-36" fill="#C6947A"></path>
                                <polygon id="Fill-37" fill="#00C9C9" points="47.2363004 55.7506777 43.0438973 52.5806797 38.811112 55.8245325 37.1533454 51.413871 48.9339247 51.413871"></polygon>
                                <path d="M48.6247454,51.4807521 C48.4640518,51.4232166 48.2849798,51.5028457 48.225132,51.6607229 L46.8010381,55.4143354 L43.1281764,52.409144 C43.1182803,52.4013192 43.1064993,52.3990178 43.0966032,52.3925738 C43.0791672,52.381527 43.0622025,52.371861 43.0433528,52.3644965 C43.0245031,52.357132 43.0061247,52.3525291 42.9868037,52.3483866 C42.9670116,52.3447043 42.9481619,52.3428632 42.9283697,52.3428632 C42.9081063,52.3428632 42.8897278,52.3447043 42.8699357,52.3483866 C42.8506147,52.3525291 42.8322363,52.357132 42.8133866,52.3644965 C42.7945369,52.371861 42.7775722,52.381527 42.7606075,52.3925738 C42.7497689,52.3990178 42.7384591,52.4013192 42.728563,52.409144 L39.0585288,55.4124942 L37.6504571,51.613774 C37.5924943,51.4558967 37.4134223,51.3753471 37.2527287,51.431962 C37.0910926,51.4890372 37.0076827,51.6634846 37.0661168,51.8204413 L38.7762547,56.4352443 L42.5739956,53.32787 L42.5739956,87.021087 L43.3011223,87.021087 L43.3011223,53.3430593 L47.0776573,56.4324826 L48.8085298,51.8719931 C48.8683776,51.7141158 48.7859102,51.5392081 48.6247454,51.4807521" id="Fill-38" fill="#00C9C9"></path>
                                <path d="M60.5398779,18.8137542 L27.0788545,18.8137542 L27.0788545,11.8828044 C27.0788545,5.33619128 32.512277,0.0291218211 39.2147548,0.0291218211 L48.4039776,0.0291218211 C55.1069266,0.0291218211 60.5398779,5.33619128 60.5398779,11.8828044 L60.5398779,18.8137542 Z" id="Fill-49" fill="#3E436E"></path>
                                <path d="M63.7821877,20.1879114 L21.7916805,20.1879114 C20.7078234,20.1879114 19.8289567,19.3294825 19.8289567,18.27037 L19.8289567,16.1217664 C19.8289567,15.0626539 20.7078234,14.2042251 21.7916805,14.2042251 L63.7821877,14.2042251 C64.8665159,14.2042251 65.7449114,15.0626539 65.7449114,16.1217664 L65.7449114,18.27037 C65.7449114,19.3294825 64.8665159,20.1879114 63.7821877,20.1879114" id="Fill-50" fill="#43476F"></path>
                                <g id="Group-4" stroke-width="1" fill="none" transform="translate(50.784964, 50.954263)">
                                    <polygon id="Fill-68" fill="#FFD8CA" points="41.6772217 37.890231 36.3879993 42.3766149 11.902726 14.8360083 17.1914772 10.3500847"></polygon>
                                    <path d="M12.9208151,15.7467237 L0.762295215,2.28665153 C3.85882769,-0.382072556 8.5839732,-0.0934747627 11.3157642,2.9315088 L18.4993803,11.0522917 L12.9208151,15.7467237 Z" id="Fill-90" fill="#FFFFFF"></path>
                                    <path d="M9.82466743,15.3505013 L15.8909682,10.2049914" id="Fill-91" fill="#009B97"></path>
                                    <polygon id="Fill-92" fill="#00C9C9" points="19.4550806 10.6102054 11.7884413 17.1061873 8.72866573 13.6614252 16.395305 7.16544325"></polygon>
                                </g>
                                <g id="Group-4-Copy" stroke-width="1" fill="none" transform="translate(30.475140, 79.590142) scale(-1, 1) rotate(40.000000) translate(-30.475140, -79.590142) translate(9.405776, 58.161570)">
                                    <polygon id="Fill-68" fill="#FFD8CA" points="41.6772217 37.890231 36.3879993 42.3766149 11.902726 14.8360083 17.1914772 10.3500847"></polygon>
                                    <path d="M12.9208151,15.7467237 L0.762295215,2.28665153 C3.85882769,-0.382072556 8.5839732,-0.0934747627 11.3157642,2.9315088 L18.4993803,11.0522917 L12.9208151,15.7467237 Z" id="Fill-90" fill="#FFFFFF"></path>
                                    <path d="M9.82466743,15.3505013 L15.8909682,10.2049914" id="Fill-91" fill="#009B97"></path>
                                    <polygon id="Fill-92" fill="#00C9C9" points="19.4550806 10.6102054 11.7884413 17.1061873 8.72866573 13.6614252 16.395305 7.16544325"></polygon>
                                </g>
                            </g>
                        </g>
                        <g id="mother" mask="url(#mask-2)">
                            <g transform="translate(82.716763, 67.792208) scale(-1, 1) translate(-82.716763, -67.792208) translate(35.895954, 15.584416)">
                                <path d="M43.7137453,0 C53.783082,-1.84970714e-15 61.9458922,8.16281021 61.9458922,18.2321469 L61.9458922,32.780047 C61.9458922,42.8493837 53.783082,51.0121939 43.7137453,51.0121939 L43.7137453,51.0121939 C33.6444086,51.0121939 25.4815984,42.8493837 25.4815984,32.780047 L25.4815984,18.2321469 L25.4815984,18.2321469 C25.4815984,8.16281021 33.6444086,1.84970714e-15 43.7137453,0 Z" id="Fill-14" fill="#F5C474"></path>
                                <path d="M57.8045376,91.8124228 L30.2378106,91.8124228 L30.2378106,51.5070287 C30.2378106,48.6633895 32.4630901,46.2718019 35.2650499,46.2478399 C35.278545,46.2478399 40.5642312,46.2476863 51.1221084,46.2473791 C53.4777883,46.2473791 57.9156368,46.1321774 57.8045376,46.4916068 L57.8045376,91.8124228 Z" id="Fill-20" fill="#ED0C6E"></path>
                                <path d="M44.4842986,43.3733481 L44.4842986,43.3733481 C36.2940271,43.6060556 29.4614257,37.2957663 29.2236922,29.2786485 L28.8706226,17.3760072 C28.6328892,9.35888931 35.0799387,2.67119927 43.2702102,2.4384918 C51.4604816,2.20578433 58.2926123,8.51607355 58.5303458,16.5331914 L58.8834153,28.4353719 C59.1211488,36.4524898 52.6740993,43.1406406 44.4842986,43.3733481" id="Fill-29" fill="#FFD8CA"></path>
                                <path d="M48.0531259,35.1054984 C47.7306557,35.9888652 47.131379,36.7077239 46.3565091,37.1952576 C45.6880308,37.6173567 44.8853861,37.8648099 44.0191889,37.8892327 C43.1525209,37.9136555 42.3371656,37.7127437 41.6442079,37.3293524 C40.8420339,36.886517 40.2008596,36.2031404 39.8270767,35.3391275 C39.4848346,34.5483829 40.0704593,33.6682418 40.945601,33.6433582 L46.8357422,33.4760854 C47.7108838,33.4512018 48.3478212,34.2963216 48.0531259,35.1054984" id="Fill-30" fill="#FFFFFF"></path>
                                <path d="M62.5871787,25.6017941 C62.6620295,28.1297805 60.6514162,30.3342806 58.0947221,30.4070881 L57.9864474,30.4103137 L57.7091702,21.0628465 L57.8174448,21.0600816 C60.3741389,20.9872741 62.512328,23.0738076 62.5871787,25.6017941" id="Fill-31" fill="#FFD8CA"></path>
                                <path d="M25.1324356,25.866291 C25.2072863,28.3942774 27.3459461,30.4808109 29.9021695,30.4084642 L30.0109149,30.4052386 L29.7336376,21.0582321 L29.6248922,21.060997 C27.0686689,21.1338045 25.0575848,23.3383045 25.1324356,25.866291" id="Fill-32" fill="#FFD8CA"></path>
                                <path d="M50.5092199,23.7211661 L50.5322871,23.7207053 L50.54029,23.7202445 C51.7463755,23.685684 52.8088794,24.4275831 53.2443318,25.4892821 C53.4392262,25.9639132 53.0866274,26.4827817 52.5645553,26.4975275 L52.5640845,26.4975275 C52.2477342,26.5062828 51.958688,26.3214993 51.8424104,26.0330342 C51.6395131,25.5284507 51.1560432,25.1478242 50.5831291,25.1639524 L50.5751262,25.1644133 L50.552059,25.1648741 C49.9796156,25.1814631 49.5192129,25.5883556 49.3464442,26.1039985 C49.2475848,26.398454 48.9698367,26.5998266 48.6534864,26.608582 C48.1314143,26.6233278 47.7491577,26.1256564 47.914865,25.6408876 C48.2867649,24.5561482 49.3036051,23.7552659 50.5092199,23.7211661" id="Fill-33" fill="#323761"></path>
                                <path d="M37.8350581,23.7211367 L37.8576545,23.7206759 L37.8661282,23.7202151 C39.0717429,23.6861154 40.1347176,24.4275536 40.57017,25.4892527 C40.7645936,25.9638837 40.4124656,26.4827523 39.8899227,26.4974981 C39.5735724,26.5062534 39.2845262,26.3214699 39.1682486,26.0330048 C38.9653513,25.5288821 38.4818815,25.1477948 37.9089673,25.163923 L37.9004936,25.1643838 L37.8778972,25.1648446 C37.3054538,25.1814337 36.8450511,25.5883261 36.6722824,26.103969 C36.573423,26.3984246 36.295675,26.5997972 35.9793247,26.6085525 C35.4572525,26.6232984 35.0745252,26.1256269 35.2407032,25.6408581 C35.6126031,24.5561188 36.6294433,23.7552364 37.8350581,23.7211367" id="Fill-34" fill="#323761"></path>
                                <g id="Group-4" stroke-width="1" fill="none" transform="translate(50.848064, 46.229801)">
                                    <polygon id="Fill-68" fill="#FFD8CA" points="41.6345197 37.1362436 36.3507165 41.6277281 11.8905306 14.0558101 17.173863 9.56478636"></polygon>
                                    <path d="M12.9075766,15.7646264 L0.761514175,2.28925127 C3.85487397,-0.382506941 8.57517814,-0.0935810358 11.3041702,2.93484169 L18.480426,11.0648572 L12.9075766,15.7646264 Z" id="Fill-90" fill="#ED0C6E"></path>
                                    <path d="M9.81460118,14.570888 L15.8746865,9.41952809" id="Fill-91" fill="#009B97"></path>
                                </g>
                                <g id="Group-4-Copy" stroke-width="1" fill="none" transform="translate(30.523769, 74.093173) scale(-1, 1) rotate(40.000000) translate(-30.523769, -74.093173) translate(9.454405, 52.664602)">
                                    <polygon id="Fill-68" fill="#FFD8CA" points="41.7962143 37.8071349 36.5124112 42.2986194 12.0522253 14.7267014 17.3355576 10.2356777"></polygon>
                                    <path d="M12.9075766,15.7646264 L0.761514175,2.28925127 C3.85487397,-0.382506941 8.57517814,-0.0935810358 11.3041702,2.93484169 L18.480426,11.0648572 L12.9075766,15.7646264 Z" id="Fill-90" fill="#ED0C6E"></path>
                                    <path d="M9.81460118,15.3679536 L15.8746865,10.2165936" id="Fill-91" fill="#009B97"></path>
                                </g>
                                <path d="M34.2013208,21.9189051 C39.892685,21.9189051 44.5064473,16.2615067 44.5064473,9.2827521 C44.5064473,2.3039975 49.0087585,1.99266382 43.3173943,1.99266382 C37.62603,1.99266382 27.8597045,8.13606812 27.8597045,15.1148227 C27.8597045,22.0935773 28.5099566,21.9189051 34.2013208,21.9189051 Z" id="Oval-2" fill="#F5C474"></path>
                                <path d="M53.331086,21.9189051 C47.6397218,21.9189051 43.0259595,16.2615067 43.0259595,9.2827521 C43.0259595,2.3039975 38.5236483,1.99266382 44.2150126,1.99266382 C49.9063768,1.99266382 59.6727023,8.13606812 59.6727023,15.1148227 C59.6727023,22.0935773 59.0224502,21.9189051 53.331086,21.9189051 Z" id="Oval-2" fill="#F5C474"></path>
                                <polygon id="Fill-70" fill="#FFD8CA" points="41.7169401 49.1013168 46.7832524 49.1013168 46.7832524 42.5486431 41.7169401 42.5486431"></polygon>
                                <path d="M44.1100963,51.294554 L44.1100963,51.294554 C41.2643912,51.294554 38.957533,49.036466 38.957533,46.250923 L49.2626595,46.250923 C49.2626595,49.036466 46.9558014,51.294554 44.1100963,51.294554" id="Fill-79" fill="#FFD8CA"></path>
                            </g>
                        </g>
                        <g id="kid" mask="url(#mask-2)">
                            <g transform="translate(31.994220, 38.181818)">
                                <path d="M34.3352601,92.7272727 L14.0462428,92.7272727 L14.0462428,51.4146701 C14.0462428,50.1315365 14.8104624,49.0909091 15.7532254,49.0909091 L32.7391908,49.0909091 C33.6206358,49.0909091 34.3352601,50.0640032 34.3352601,51.2642549 L34.3352601,92.7272727 Z" id="Fill-69" fill="#43476F"></path>
                                <polygon id="Fill-70" fill="#FFD8CA" points="21.849711 51.4285714 26.5317919 51.4285714 26.5317919 45.1948052 21.849711 45.1948052"></polygon>
                                <path d="M24.7584941,47.5265352 L24.7584941,47.5265352 C17.0955128,47.7479544 10.7032351,41.7437668 10.480807,34.1155461 L10.1504681,22.7902822 C9.92803988,15.1620614 15.9595875,8.79878015 23.6225688,8.57736093 C31.28555,8.35594172 37.6782682,14.3601293 37.9006964,21.98835 L38.2310352,33.3136139 C38.4534634,40.9418347 32.4214754,47.305116 24.7584941,47.5265352" id="Fill-71" fill="#FFD8CA"></path>
                                <path d="M28.0245648,40.6868056 C27.7253689,41.6225893 27.1685321,42.3832184 26.4485373,42.8994119 C25.8269622,43.3468121 25.081597,43.6083241 24.2767425,43.6341826 C23.4714507,43.660529 22.7134002,43.4473186 22.0699541,43.0413895 C21.3245889,42.5725219 20.7283842,41.8489728 20.381072,40.9341687 C20.063067,40.0969399 20.607656,39.1650594 21.4208215,39.138713 L26.8933944,38.961607 C27.7065598,38.9352606 28.2988277,39.830061 28.0245648,40.6868056" id="Fill-72" fill="#FFFFFF"></path>
                                <path d="M42.1367872,31.0368331 C42.2085948,33.5644326 40.2792734,35.7685951 37.8265243,35.8409307 L37.7226517,35.8441558 L37.4566474,26.4985804 L37.56052,26.4953553 C40.0132692,26.422559 42.0649796,28.5092337 42.1367872,31.0368331" id="Fill-73" fill="#FFD8CA"></path>
                                <path d="M6.24471634,31.3012897 C6.31653087,33.828889 8.36798735,35.915103 10.8209728,35.8423066 L10.9248555,35.8395422 L10.6588256,26.4935065 L10.5549429,26.4967316 C8.10195743,26.569528 6.17290182,28.7736904 6.24471634,31.3012897" id="Fill-74" fill="#FFD8CA"></path>
                                <path d="M29.9649629,28.833381 L29.9877237,28.832884 L29.996259,28.832387 C31.2106399,28.7956075 32.2808695,29.5953123 32.7199623,30.7404459 C32.9157996,31.2523763 32.5611112,31.8120206 32.0347688,31.8279252 C31.7156441,31.8373686 31.4244962,31.6380637 31.3078473,31.3269293 C31.1030005,30.7831896 30.6160153,30.3721543 30.0394096,30.390047 L30.0308743,30.390047 L30.0081135,30.391041 C29.4310336,30.4084367 28.9672833,30.8473052 28.7932584,31.4034703 C28.6941543,31.721066 28.4139125,31.9382636 28.0957361,31.947707 C27.5693938,31.9636116 27.1843577,31.4268302 27.3517441,30.9039654 C27.7263481,29.7339809 28.7501078,28.8701605 29.9649629,28.833381" id="Fill-75" fill="#29353A"></path>
                                <path d="M18.2600471,28.8333807 L18.2828079,28.8328837 L18.2908691,28.8323868 C19.5057272,28.7956129 20.5759593,29.5951956 21.014579,30.7401544 C21.210891,31.2520066 20.8557276,31.8115654 20.3298581,31.8274676 L20.3293839,31.8274676 C20.0107326,31.8374065 19.7195839,31.637635 19.6024606,31.3265481 C19.3980875,30.7828915 18.9111011,30.3719189 18.3344939,30.3898089 L18.3259586,30.3898089 L18.3031978,30.3908028 C17.7261165,30.4081958 17.2623651,30.8474942 17.0883397,31.4030775 C16.9892354,31.7206247 16.7089929,31.9377891 16.3908158,31.947728 C15.8644721,31.9631333 15.4794351,31.4264339 15.6463477,30.9036489 C16.0209527,29.733843 17.045189,28.8701545 18.2600471,28.8333807" id="Fill-76" fill="#29353A"></path>
                                <path d="M23.4636861,0 L24.13747,0 C28.9075762,0 32.7745665,3.98069788 32.7745665,8.89255317 L32.7745665,12.4675325 L14.8265896,12.4675325 L14.8265896,8.89255317 C14.8265896,3.98069788 18.6935798,0 23.4636861,0 Z" id="Fill-3" fill="#43476F"></path>
                                <path d="M10.5303367,30.3386908 C10.4482862,28.0881096 10.1771629,22.4031054 12.4130386,21.1326517 C13.4984238,20.5157635 14.8192583,20.6107714 15.9800051,20.7212456 C20.1743903,21.1171853 24.0865039,23.1397476 31.4068342,21.9461839 C35.4803732,21.2820128 35.7390106,21.1852374 36.8333144,20.3244221 C37.2859298,19.9682532 37.8732151,25.7610803 37.8990789,27.8530204 C37.910227,28.8207747 37.965076,29.8689543 37.9548197,30.8367086 C37.9481308,31.4049881 37.8803499,32.142956 37.9731027,32.6953272 C38.0118983,32.9237879 38.2072141,33.4863227 38.9394255,33.266258 C39.5525745,33.081987 39.5258189,32.2609425 39.5806679,31.6559856 C39.9628269,27.4111235 40.05335,25.1088404 39.8517912,21.1428153 C39.7545792,19.2267501 39.7911452,19.26166 39.6279361,17.5581472 C40.2495577,17.0680835 40.9777558,16.0640937 41.0330507,15.2227219 C41.1155471,13.9752468 40.0279322,13.1215019 39.4959418,13.68713 C40.5015062,12.6177394 41.9084045,10.7485153 41.1356138,9.22397082 C40.2727459,7.52222567 38.1612837,8.74097745 36.9479175,9.36184267 C37.533865,8.83289202 37.9655219,7.84878752 37.1369904,7.26327406 C36.7592906,6.9968102 35.9882836,7.17577847 35.5673289,7.27343769 C34.4003391,7.54432052 33.3483984,8.47583929 32.0806292,8.25091374 C32.6268892,7.00962522 31.1807494,7.20317608 30.4142017,7.34944397 C28.9074159,7.63623509 27.8331788,7.37772537 26.2804625,7.18859348 C21.2896526,6.58098518 17.5380725,7.54918139 13.4119141,10.1082066 C13.5595158,8.78339956 12.404566,8.0255463 11.4792684,9.23015738 C10.7871904,10.1307434 11.2540755,11.8148126 11.2540755,11.8148126 C11.2540755,11.8148126 9.04094202,11.8753525 8.85989584,13.4577855 C8.70917267,14.7733127 10.0148456,14.5218733 10.0148456,14.5218733 C9.55464941,15.0945718 9.2991335,16.2130129 9.16936887,16.6765628 C8.71675342,18.2952314 8.58074582,20.0031631 8.58386731,21.6770687 C8.59233991,27.1278675 8.59412362,25.6351396 8.93882484,31.0651693 C8.96914785,31.5477208 9.09400728,34.2857143 10.091545,34.2857143 C11.1617687,34.2857143 10.5722538,31.495577 10.5303367,30.3386908" id="Fill-78" fill="#EC8F8F"></path>
                                <path d="M24.5809249,52.987013 L24.5809249,52.987013 C22.2105506,52.987013 20.2890173,50.8938197 20.2890173,48.3116883 L28.8728324,48.3116883 C28.8728324,50.8938197 26.9512991,52.987013 24.5809249,52.987013" id="Fill-79" fill="#FFD8CA"></path>
                                <path d="M1.35053412,67.8444577 L3.05034755,69.3506494 L10.1445087,61.0138811 L5.48333353,56.8831169 L0.9609651,62.1982131 C-0.459414477,63.8674245 -0.285109646,66.3949283 1.35053412,67.8444577" id="Fill-80" fill="#FFD8CA"></path>
                                <path d="M9.47253686,62.3376623 L20.2890173,50.632847 C17.614677,48.3805487 13.5337971,48.6240645 11.174772,51.1774126 L4.68208092,58.3522093 L9.47253686,62.3376623 Z" id="Fill-81" fill="#43476F"></path>
                                <polygon id="Fill-82" fill="#D30D75" points="7.02312139 55.6664191 11.4427356 60 11.7052023 59.6582563 7.28558808 55.3246753"></polygon>
                                <path d="M47.8113156,67.8439933 L46.1115022,69.3506494 L39.017341,61.0138811 L43.6785162,56.8831169 L48.2008846,62.1982131 C49.6212642,63.86696 49.4469594,66.3949283 47.8113156,67.8439933" id="Fill-83" fill="#FFD8CA"></path>
                                <path d="M40.4695163,62.3376623 L29.6531792,50.6332306 C32.3271324,48.3804743 36.4081345,48.6239914 38.7672302,51.1773531 L45.2601156,58.352188 L40.4695163,62.3376623 Z" id="Fill-84" fill="#43476F"></path>
                                <polygon id="Fill-85" fill="#D30D75" points="42.9190751 55.6664191 38.4998884 60 38.2369942 59.6582563 42.6566085 55.3246753"></polygon>
                                <path d="M47.6136512,64.1858393 L47.6136512,64.1858393 C48.7487593,65.4809629 48.6091817,67.4417314 47.3021435,68.5660945 L36.4035336,77.9405181 C35.0964954,79.0648813 33.1169887,78.9270827 31.9818806,77.632417 C30.8467724,76.3372935 30.9858878,74.376525 32.2933883,73.2521618 L43.1919981,63.8772804 C44.4990364,62.753375 46.478543,62.8911736 47.6136512,64.1858393" id="Fill-88" fill="#FFD8CA"></path>
                                <path d="M0.767851715,64.1858393 L0.767851715,64.1858393 C-0.367256458,65.4809629 -0.227678824,67.4417314 1.07935941,68.5660945 L11.9779693,77.9405181 C13.2850075,79.0648813 15.2645142,78.9270827 16.3996223,77.632417 C17.5347305,76.3372935 17.395615,74.376525 16.0881146,73.2521618 L5.18950476,63.8772804 C3.88246653,62.753375 1.90295989,62.8911736 0.767851715,64.1858393" id="Fill-89" fill="#FFD8CA"></path>
                            </g>
                        </g>
                        <g id="father-+-mother-+-kid-Mask" mask="url(#mask-2)">
                            <g transform="translate(31.994220, 28.051948)"></g>
                        </g>
                    </g>
                </g>
            </g>
        </g>
    </g>
</svg>