<svg width="154px" height="133px" viewBox="0 0 154 133" version="1.1" xmlns="http://www.w3.org/2000/svg" xmlns:xlink="http://www.w3.org/1999/xlink">
    <!-- Generator: Sketch 46.2 (44496) - http://www.bohemiancoding.com/sketch -->
    <desc>Created with Sketch.</desc>
    <defs>
        <path d="M114,84.4548629 C114,89.1713707 110.348278,93 105.849462,93 L8.15053805,93 C3.65172195,93 0,89.1713707 0,84.4548629 L0,8.54513707 C0,3.82862932 3.65172195,0 8.15053805,0 L105.849462,0 C110.348278,0 114,3.82862932 114,8.54513707 L114,84.4548629 Z" id="path-1"></path>
        <filter x="-29.8%" y="-28.0%" width="159.6%" height="173.1%" filterUnits="objectBoundingBox" id="filter-3">
            <feOffset dx="0" dy="8" in="SourceAlpha" result="shadowOffsetOuter1"></feOffset>
            <feGaussianBlur stdDeviation="10" in="shadowOffsetOuter1" result="shadowBlurOuter1"></feGaussianBlur>
            <feColorMatrix values="0 0 0 0 0.196078431   0 0 0 0 0.215686275   0 0 0 0 0.380392157  0 0 0 0.357648324 0" type="matrix" in="shadowBlurOuter1"></feColorMatrix>
        </filter>
        <polygon id="path-4" points="36.1889658 7.64701486e-15 36.1889658 58.6433185 0 58.6433185 0 0 36.1889658 0"></polygon>
    </defs>
    <g id="Page-1" stroke="none" stroke-width="1" fill="none" fill-rule="evenodd">
        <g id="ABOUT" transform="translate(-919.000000, -748.000000)">
            <g id="section-1" transform="translate(236.000000, 471.000000)">
                <g id="countries" transform="translate(703.000000, 289.000000)">
                    <mask id="mask-2" fill="white">
                        <use xlink:href="#path-1"></use>
                    </mask>
                    <g id="Mask">
                        <use fill="black" fill-opacity="1" filter="url(#filter-3)" xlink:href="#path-1"></use>
                        <use fill="#323761" fill-rule="evenodd" xlink:href="#path-1"></use>
                    </g>
                    <g id="Page-1" stroke-width="1" fill-rule="evenodd" mask="url(#mask-2)">
                        <g transform="translate(21.863014, 10.159664)">
                            <g id="Group-3" stroke-width="1" fill="none" transform="translate(0.780822, 0.000000)">
                                <ellipse id="Oval-4" fill="#FFFFFF" cx="32.4041096" cy="36.3403361" rx="32.4041096" ry="32.4327731"></ellipse>
                                <path d="M8.35718953,11.9948561 C8.35718953,8.53986214 11.0567917,5.74276018 14.3847318,5.74276018 C17.712672,5.74276018 20.4122741,8.53986214 20.4122741,11.9948561 C20.4122741,15.4456055 17.712672,18.2427075 14.3847318,18.2427075 C11.0567917,18.2427075 8.35718953,15.4456055 8.35718953,11.9948561 M14.3847318,33.898414 C14.3847318,33.898414 25.9506542,21.9608582 25.9506542,11.9948561 C25.9506542,5.36924732 20.7724939,0 14.3847318,0 C7.99696968,0 2.81880942,5.36924732 2.81880942,11.9948561 C2.81880942,22.525372 14.3847318,33.898414 14.3847318,33.898414" id="Fill-1" fill="#ED0C6E"></path>
                            </g>
                            <g id="Group-6" stroke-width="1" fill="none" transform="translate(29.671233, 10.159664)">
                                <mask id="mask-5" fill="white">
                                    <use xlink:href="#path-4"></use>
                                </mask>
                                <g id="Clip-5"></g>
                                <path d="M30.6749675,7.91457369 L29.6945898,8.22883042 L24.4509575,8.70021551 L22.9750512,11.0808178 L21.9049657,10.7364269 L17.7314189,6.94812664 L17.1226876,4.97864099 L16.3174537,2.87570386 L13.6924337,0.503711307 L10.6060594,-0.105430155 L10.531303,1.32163977 L13.5600079,4.30062134 L15.0444578,6.05916754 L13.3720488,6.93736442 L12.013617,6.53270508 L9.98237691,5.68033752 L10.0528616,4.0251086 L7.38298769,2.91875272 L6.49658956,6.80176049 L3.80962848,7.41735928 L4.07661587,9.58486972 L7.57735451,10.2650418 L8.18181396,6.80176049 L11.0716855,7.2344016 L12.415166,8.02650075 L14.57456,8.02650075 L16.0483304,11.0054823 L19.9634334,15.0068745 L19.6793589,16.563091 L16.5203641,16.1562792 L11.0674137,18.9307787 L7.14163109,23.6769162 L6.63115121,25.7777009 L5.2193219,25.7777009 L2.59430189,24.559418 L0.0440383562,25.7777009 L0.678400391,28.4919319 L1.78906793,27.196161 L3.73914381,27.1380451 L3.60244627,29.5746109 L5.2193219,30.0481485 L6.83406162,31.8777253 L9.46976112,31.1308275 L12.4813789,31.6086699 L15.9757098,32.5578974 L17.7271471,32.7602271 L20.6810955,36.1481729 L26.3946257,39.5361187 L22.703792,46.6520963 L18.8015043,48.4795207 L17.3213262,52.5454861 L11.6761449,56.3445486 L11.0738214,58.5378884 C25.497548,55.0358631 36.2347129,41.9791418 36.2347129,26.3588606 C36.2368487,19.5270055 34.1885215,13.1816025 30.6749675,7.91457369" id="Fill-4" fill="#00C9C9" mask="url(#mask-5)"></path>
                            </g>
                            <path d="M36.7465631,53.9073387 L34.3486052,49.4835218 L36.549588,44.9149409 L34.3486052,44.2528585 L31.8735702,41.7854842 L26.3925236,40.5656348 L24.5726449,36.7783536 L24.5726449,39.028582 L23.7697572,39.028582 L20.2905773,34.3386548 C18.5927375,36.3589639 17.3038352,37.6490664 17.1432576,37.8066037 L15.6509571,39.2840478 L14.1244,37.8427946 C13.7325908,37.4681114 6.72070509,30.7855506 3.25437137,22.6638655 C1.18613272,26.9407896 0,31.7158721 0,36.7783536 C0,54.8781089 14.7538639,69.5546218 32.9569333,69.5546218 C34.3571694,69.5546218 35.729572,69.4332756 37.0912695,69.2672228 L36.7465631,65.2989866 C36.7465631,65.2989866 38.260274,59.4019833 38.260274,59.2039973 C38.260274,59.0038823 36.7465631,53.9073387 36.7465631,53.9073387" id="Fill-7" fill="#00C9C9"></path>
                            <path d="M34.8583617,6.53013041 L38.2617164,4.60308251 L40.4447964,5.89966272 L37.2816022,8.37920527 L34.2655333,8.69332522 L32.9046241,7.7866102 L34.8583617,6.53013041 Z M30.8189065,9.70474689 L33.2702738,10.1213457 L39.2201945,9.54657302 L40.8537182,7.68858695 L43.1666147,6.09793701 L46.4379892,6.60587565 L47.630137,6.42096816 C43.3223944,4.33351858 38.5278401,3.12605042 33.4520168,3.12605042 C31.080703,3.12605042 28.7786246,3.41120895 26.5479452,3.89464178 C28.2809948,5.84396769 29.5272328,8.25667622 30.0573166,10.9411765 L30.8189065,9.70474689 Z" id="Fill-9" fill="#00C9C9"></path>
                            <path d="M57.0037931,34.7789355 C57.0037931,33.3152746 58.1474426,32.1303207 59.5572789,32.1303207 C60.9671152,32.1303207 62.1107646,33.3152746 62.1107646,34.7789355 C62.1107646,36.2407983 60.9671152,37.4257522 59.5572789,37.4257522 C58.1474426,37.4257522 57.0037931,36.2407983 57.0037931,34.7789355 M59.5572789,44.0580779 C59.5572789,44.0580779 64.4570235,39.0008958 64.4570235,34.7789355 C64.4570235,31.9720871 62.2633668,29.697479 59.5572789,29.697479 C56.8511909,29.697479 54.6575342,31.9720871 54.6575342,34.7789355 C54.6575342,39.2400443 59.5572789,44.0580779 59.5572789,44.0580779" id="Fill-1" fill="#ED0C6E"></path>
                            <path d="M16.4010534,51.1907002 C16.4010534,49.7270393 17.5447029,48.5420854 18.9545392,48.5420854 C20.3643754,48.5420854 21.5080249,49.7270393 21.5080249,51.1907002 C21.5080249,52.652563 20.3643754,53.8375169 18.9545392,53.8375169 C17.5447029,53.8375169 16.4010534,52.652563 16.4010534,51.1907002 M18.9545392,60.4698426 C18.9545392,60.4698426 23.8542838,55.4126605 23.8542838,51.1907002 C23.8542838,48.3838518 21.6606271,46.1092437 18.9545392,46.1092437 C16.2484512,46.1092437 14.0547945,48.3838518 14.0547945,51.1907002 C14.0547945,55.6518091 18.9545392,60.4698426 18.9545392,60.4698426" id="Fill-1" fill="#ED0C6E"></path>
                        </g>
                    </g>
                </g>
            </g>
        </g>
    </g>
</svg>