<svg width="22" height="18" viewBox="0 0 22 18" xmlns="http://www.w3.org/2000/svg">
  <title>
    Triangle 29
  </title>
  <path d="M9.2915.86646c.71492-1.15666 1.87574-1.1539 2.58896 0l8.862 14.33764C21.69685 16.74823 21.00163 18 19.1905 18H1.98142C.16993 18-.52797 16.75322.4295 15.2041L9.2915.86646zm1.29478 11.38172c.4538 0 .8217-.37226.8217-.81925V6.4939c0-.45245-.36473-.81924-.8217-.81924-.4538 0-.8217.37226-.8217.81925v4.93503c0 .45246.36473.81925.8217.81925zm0 3.28675c.4538 0 .8217-.36788.8217-.8217 0-.4538-.3679-.82168-.8217-.82168s-.8217.3679-.8217.8217.3679.82168.8217.82168z" fill-rule="nonzero" fill="#ED0C6E"/>
</svg>