<?xml version="1.0" encoding="UTF-8"?>
<svg width="54px" height="63px" viewBox="0 0 54 63" version="1.1" xmlns="http://www.w3.org/2000/svg" xmlns:xlink="http://www.w3.org/1999/xlink">
    <!-- Generator: Sketch 46.2 (44496) - http://www.bohemiancoding.com/sketch -->
    <title>Android</title>
    <desc>Created with Sketch.</desc>
    <defs></defs>
    <g id="Page-1" stroke="none" stroke-width="1" fill="none" fill-rule="evenodd">
        <g id="FAQs" transform="translate(-604.000000, -447.000000)" fill="#85C808">
            <g id="android" transform="translate(549.000000, 415.000000)">
                <g id="Android" transform="translate(55.070800, 31.987867)">
                    <g id="Page-1">
                        <path d="M4.12941176,17.4 C1.84997647,17.4 0,19.1472 0,21.3 L0,36.9 C0,39.0528 1.84997647,40.8 4.12941176,40.8 C6.40884706,40.8 8.25882353,39.0528 8.25882353,36.9 L8.25882353,21.3 C8.25882353,19.14525 6.40884706,17.4 4.12941176,17.4" id="Fill-1"></path>
                        <path d="M49.8705882,17.4 C47.5911529,17.4 45.7411765,19.1472 45.7411765,21.3 L45.7411765,36.9 C45.7411765,39.0528 47.5911529,40.8 49.8705882,40.8 C52.1500235,40.8 54,39.0528 54,36.9 L54,21.3 C54,19.14525 52.1500235,17.4 49.8705882,17.4" id="Fill-3"></path>
                        <path d="M10.1647059,49.2545455 L14.2941176,49.2545455 L14.2941176,59.0727273 C14.2941176,61.2405818 16.1440941,63 18.4235294,63 C20.7029647,63 22.5529412,61.2405818 22.5529412,59.0727273 L22.5529412,49.2545455 L30.8117647,49.2545455 L30.8117647,59.0727273 C30.8117647,61.2405818 32.6617412,63 34.9411765,63 C37.2206118,63 39.0705882,61.2405818 39.0705882,59.0727273 L39.0705882,49.2545455 L43.2,49.2545455 L43.2,19.8 L10.1647059,19.8 L10.1647059,49.2545455 Z" id="Fill-5"></path>
                        <path d="M32.8764706,11.5862003 C31.7346882,11.5862003 30.8117647,10.7199441 30.8117647,9.64826701 C30.8117647,8.57658993 31.7346882,7.71033377 32.8764706,7.71033377 C34.0182529,7.71033377 34.9411765,8.57658993 34.9411765,9.64826701 C34.9411765,10.7199441 34.0182529,11.5862003 32.8764706,11.5862003 M20.4882353,11.5862003 C19.3464529,11.5862003 18.4235294,10.7199441 18.4235294,9.64826701 C18.4235294,8.57658993 19.3464529,7.71033377 20.4882353,7.71033377 C21.6300176,7.71033377 22.5529412,8.57658993 22.5529412,9.64826701 C22.5529412,10.7199441 21.6300176,11.5862003 20.4882353,11.5862003 M36.4339588,4.90420643 L38.5544118,1.45662318 C38.8414059,0.991519201 38.6721,0.400449561 38.1745059,0.131076839 C37.6831059,-0.138295882 37.0492412,0.0206146443 36.7643118,0.487656557 L34.6975412,3.84803281 C32.3231294,2.60775553 29.5935882,1.89653403 26.6823529,1.89653403 C23.7731824,1.89653403 21.0436412,2.60775553 18.6671647,3.84997074 L16.5983294,0.485718624 C16.3113353,0.0225525776 15.6836647,-0.136357949 15.1860706,0.131076839 C14.6946706,0.398511627 14.5253647,0.989581268 14.8082294,1.45468525 L16.9307471,4.90420643 C12.8364353,7.72583723 10.1647059,12.2644769 10.1647059,17.4 L43.2,17.4 C43.2,12.2644769 40.5282706,7.72583723 36.4339588,4.90420643" id="Fill-7"></path>
                    </g>
                </g>
            </g>
        </g>
    </g>
</svg>