<svg width="16" height="16" viewBox="0 0 16 16" xmlns="http://www.w3.org/2000/svg">
  <title>
    Shape
  </title>
  <path d="M8 16c-4.418 0-8-3.582-8-8s3.582-8 8-8 8 3.582 8 8-3.582 8-8 8zm4-9H9V3.99c0-.55-.448-1-1-1s-1 .45-1 1v4.02c.005.548.45.99 1 .99h4c.552 0 1-.448 1-1s-.448-1-1-1z" fill="#CED0DA" fill-rule="evenodd"/>
</svg>