<svg width="53" height="49" viewBox="0 0 53 49" xmlns="http://www.w3.org/2000/svg" xmlns:xlink="http://www.w3.org/1999/xlink">
  <title>
    icon porn
  </title>
  <defs>
    <path id="a" d="M0 0h53v49H0z"/>
    <path id="b" d="M0 0h53v13H0z"/>
  </defs>
  <g fill="none" fill-rule="evenodd">
    <g>
      <use fill="#FFF" xlink:href="#a"/>
      <path stroke="#BDBFCC" d="M.5.5h52v48H.5z"/>
    </g>
    <path d="M26.5 21c-2.2703 0-4.40486.88453-6.01003 2.4889C18.88427 25.09595 18 27.2289 18 29.5c0 2.2711.88427 4.40406 2.4897 6.0111C22.09514 37.11546 24.2297 38 26.5 38c2.2703 0 4.40486-.88453 6.0103-2.4889C34.11573 33.90405 35 31.7711 35 29.5c0-2.2711-.88427-4.40406-2.4897-6.0111C30.90486 21.88454 28.7703 21 26.5 21zm5.30304 13.80357C30.3866 36.22054 28.50304 37 26.5 37c-2.0033 0-3.8866-.77946-5.30304-2.19643C19.78026 33.3866 19 31.50357 19 29.5s.78027-3.8866 2.19696-5.30357C22.6134 22.77946 24.4967 22 26.5 22c2.00304 0 3.8866.77946 5.30304 2.19643C33.21974 25.6134 34 27.49643 34 29.5s-.78027 3.8866-2.19696 5.30357zm-2.01526-5.72628l-3.8889-2.96157c-.1672-.12923-.3947-.15077-.5861-.06192-.1914.09155-.31278.28-.31278.48463v5.9231c0 .2073.1214.39308.31278.48462.07694.035.16.05385.2425.05385.1225 0 .2436-.0377.3436-.11577l3.8889-2.96155c.1339-.1023.21222-.25847.21222-.4227 0-.16423-.07833-.32038-.21222-.4227zM26 32v-4l2 2-2 2z" fill="#B2B3BC"/>
    <g>
      <use fill="#ECEDF3" xlink:href="#b"/>
      <path stroke="#BDBFCC" d="M.5.5v12h52V.5H.5z"/>
    </g>
    <path d="M10 6.5C10 7.88083 8.88083 9 7.5 9S5 7.88083 5 6.5 6.11917 4 7.5 4 10 5.11917 10 6.5zM18 6.5C18 7.88083 16.88083 9 15.5 9S13 7.88083 13 6.5 14.11917 4 15.5 4 18 5.11917 18 6.5zM26 6.5C26 7.88083 24.88083 9 23.5 9S21 7.88083 21 6.5 22.11917 4 23.5 4 26 5.11917 26 6.5z" stroke="#BDBFCA" fill="#FFF"/>
  </g>
</svg>